EESchema Schematic File Version 4
LIBS:64 channel-cache
EELAYER 26 0
EELAYER END
$Descr A4 11693 8268
encoding utf-8
Sheet 1 1
Title ""
Date ""
Rev ""
Comp ""
Comment1 ""
Comment2 ""
Comment3 ""
Comment4 ""
$EndDescr
$Comp
L electrode:ECOG_ACx_3600_2000_60ch ECOG1
U 1 1 5A422315
P 5600 2300
F 0 "ECOG1" H 5600 2500 60  0000 C CNN
F 1 "ECOG_ACx_3600_2000_60ch" H 5650 2650 60  0000 C CNN
F 2 "measurement_electrodes:ECOG_ACx_3600_2000_60" H 5600 2300 60  0001 C CNN
F 3 "" H 5600 2300 60  0001 C CNN
	1    5600 2300
	1    0    0    -1  
$EndComp
$Comp
L samtec_molc_110_01_s_q:SAMTEC_MOLC_110_01_S_Q MOLC2
U 1 1 5A422626
P 1400 1750
F 0 "MOLC2" H 1550 1950 60  0000 C CNN
F 1 "SAMTEC_MOLC_110_01_S_Q" H 1600 2100 60  0000 C CNN
F 2 "SAMTEC:SAMTEC_MOLC_110_01_s_q" H 1450 2500 60  0001 C CNN
F 3 "" H 1450 2500 60  0001 C CNN
	1    1400 1750
	-1   0    0    -1  
$EndComp
$Comp
L samtec_molc_110_01_s_q:SAMTEC_MOLC_110_01_S_Q MOLC1
U 1 1 5A422791
P 10300 1800
F 0 "MOLC1" H 10400 2000 60  0000 C CNN
F 1 "SAMTEC_MOLC_110_01_S_Q" H 10350 2150 60  0000 C CNN
F 2 "SAMTEC:SAMTEC_MOLC_110_01_s_q" H 10350 2550 60  0001 C CNN
F 3 "" H 10350 2550 60  0001 C CNN
	1    10300 1800
	1    0    0    -1  
$EndComp
Wire Wire Line
	1400 1750 4650 1750
Wire Wire Line
	4650 1750 4650 4900
Wire Wire Line
	4650 4900 5150 4900
Wire Wire Line
	1400 1850 4600 1850
Wire Wire Line
	4600 1850 4600 5200
Wire Wire Line
	4600 5200 5150 5200
Wire Wire Line
	4550 1950 4550 4800
Wire Wire Line
	4550 4800 5150 4800
Wire Wire Line
	1400 1950 4550 1950
Wire Wire Line
	1400 2050 4500 2050
Wire Wire Line
	4500 2050 4500 4300
Wire Wire Line
	4500 4300 5150 4300
Wire Wire Line
	1400 2150 4450 2150
Wire Wire Line
	4450 2150 4450 4600
Wire Wire Line
	4450 4600 5150 4600
Wire Wire Line
	1400 2250 4400 2250
Wire Wire Line
	4400 2250 4400 4200
Wire Wire Line
	4400 4200 5150 4200
Wire Wire Line
	1400 2350 4350 2350
Wire Wire Line
	4350 2350 4350 3500
Wire Wire Line
	4350 3500 5150 3500
Wire Wire Line
	1400 2450 4250 2450
Wire Wire Line
	4250 2450 4250 3700
Wire Wire Line
	4250 3700 5150 3700
Wire Wire Line
	4300 2550 4300 3900
Wire Wire Line
	4300 3900 5150 3900
Wire Wire Line
	1400 2550 4300 2550
Wire Wire Line
	1400 2750 4200 2750
Wire Wire Line
	4200 2750 4200 4700
Wire Wire Line
	4200 4700 5150 4700
Wire Wire Line
	1400 2850 4150 2850
Wire Wire Line
	4150 2850 4150 5100
Wire Wire Line
	4150 5100 5150 5100
Wire Wire Line
	1400 2950 4100 2950
Wire Wire Line
	4100 2950 4100 5000
Wire Wire Line
	4100 5000 5150 5000
Wire Wire Line
	1400 3050 4050 3050
Wire Wire Line
	4050 3050 4050 4100
Wire Wire Line
	4050 4100 5150 4100
Wire Wire Line
	1400 3150 4000 3150
Wire Wire Line
	4000 3150 4000 4500
Wire Wire Line
	4000 4500 5150 4500
Wire Wire Line
	1400 3250 3950 3250
Wire Wire Line
	3950 3250 3950 4400
Wire Wire Line
	3950 4400 5150 4400
Wire Wire Line
	1400 3750 3900 3750
Wire Wire Line
	3900 3750 3900 1600
Wire Wire Line
	3900 1600 6400 1600
Wire Wire Line
	6400 1600 6400 2400
Wire Wire Line
	6400 2400 6050 2400
Wire Wire Line
	1400 3850 3850 3850
Wire Wire Line
	3850 3850 3850 1550
Wire Wire Line
	3850 1550 6450 1550
Wire Wire Line
	6450 1550 6450 2800
Wire Wire Line
	6450 2800 6050 2800
Wire Wire Line
	1400 3950 3800 3950
Wire Wire Line
	3800 3950 3800 1500
Wire Wire Line
	3800 1500 6500 1500
Wire Wire Line
	6500 1500 6500 2500
Wire Wire Line
	6500 2500 6050 2500
Wire Wire Line
	1400 4050 3750 4050
Wire Wire Line
	3750 4050 3750 1450
Wire Wire Line
	3750 1450 6550 1450
Wire Wire Line
	6550 1450 6550 3000
Wire Wire Line
	6550 3000 6050 3000
Wire Wire Line
	1400 4150 3700 4150
Wire Wire Line
	3700 4150 3700 1400
Wire Wire Line
	3700 1400 6600 1400
Wire Wire Line
	6600 1400 6600 3400
Wire Wire Line
	6600 3400 6050 3400
Wire Wire Line
	1400 4250 3650 4250
Wire Wire Line
	3650 4250 3650 1350
Wire Wire Line
	3650 1350 6650 1350
Wire Wire Line
	6650 1350 6650 3100
Wire Wire Line
	6650 3100 6050 3100
Wire Wire Line
	1400 4750 3600 4750
Wire Wire Line
	3600 4750 3600 1300
Wire Wire Line
	3600 1300 6700 1300
Wire Wire Line
	6700 1300 6700 2600
Wire Wire Line
	6700 2600 6050 2600
Wire Wire Line
	1400 4850 3550 4850
Wire Wire Line
	3550 4850 3550 1250
Wire Wire Line
	3550 1250 6750 1250
Wire Wire Line
	6750 1250 6750 2700
Wire Wire Line
	6750 2700 6050 2700
Wire Wire Line
	1400 4950 3500 4950
Wire Wire Line
	3500 4950 3500 1200
Wire Wire Line
	3500 1200 6800 1200
Wire Wire Line
	6800 1200 6800 2300
Wire Wire Line
	6800 2300 6050 2300
Wire Wire Line
	1400 5050 3450 5050
Wire Wire Line
	3450 5050 3450 1150
Wire Wire Line
	3450 1150 6850 1150
Wire Wire Line
	6850 1150 6850 3200
Wire Wire Line
	6850 3200 6050 3200
Wire Wire Line
	1400 5150 3400 5150
Wire Wire Line
	3400 5150 3400 1100
Wire Wire Line
	3400 1100 6900 1100
Wire Wire Line
	6900 1100 6900 3300
Wire Wire Line
	6900 3300 6050 3300
Wire Wire Line
	1400 5250 3350 5250
Wire Wire Line
	3350 5250 3350 1050
Wire Wire Line
	3350 1050 6950 1050
Wire Wire Line
	6950 1050 6950 2900
Wire Wire Line
	6950 2900 6050 2900
Wire Wire Line
	1400 5350 3300 5350
Wire Wire Line
	3300 5350 3300 1000
Wire Wire Line
	3300 1000 7000 1000
Wire Wire Line
	7000 1000 7000 3600
Wire Wire Line
	7000 3600 6050 3600
Wire Wire Line
	1400 5450 3250 5450
Wire Wire Line
	3250 5450 3250 950 
Wire Wire Line
	3250 950  7050 950 
Wire Wire Line
	7050 950  7050 3800
Wire Wire Line
	7050 3800 6050 3800
Wire Wire Line
	1400 5550 3200 5550
Wire Wire Line
	3200 5550 3200 900 
Wire Wire Line
	3200 900  7100 900 
Wire Wire Line
	7100 900  7100 4000
Wire Wire Line
	7100 4000 6050 4000
Wire Wire Line
	10300 1800 10300 1700
Wire Wire Line
	10300 1700 7150 1700
Wire Wire Line
	7150 1700 7150 5450
Wire Wire Line
	7150 5450 5050 5450
Wire Wire Line
	5050 5450 5050 3800
Wire Wire Line
	5050 3800 5150 3800
Wire Wire Line
	10300 1900 7200 1900
Wire Wire Line
	7200 1900 7200 5500
Wire Wire Line
	7200 5500 5000 5500
Wire Wire Line
	5000 5500 5000 2900
Wire Wire Line
	5000 2900 5150 2900
Wire Wire Line
	10300 2000 7250 2000
Wire Wire Line
	7250 2000 7250 5550
Wire Wire Line
	7250 5550 4950 5550
Wire Wire Line
	4950 5550 4950 3300
Wire Wire Line
	4950 3300 5150 3300
Wire Wire Line
	10300 2100 7300 2100
Wire Wire Line
	7300 2100 7300 5600
Wire Wire Line
	7300 5600 4900 5600
Wire Wire Line
	4900 5600 4900 3200
Wire Wire Line
	4900 3200 5150 3200
Wire Wire Line
	10300 2200 7350 2200
Wire Wire Line
	7350 2200 7350 5650
Wire Wire Line
	7350 5650 4850 5650
Wire Wire Line
	4850 5650 4850 2300
Wire Wire Line
	4850 2300 5150 2300
Wire Wire Line
	10300 2300 7400 2300
Wire Wire Line
	7400 2300 7400 5700
Wire Wire Line
	7400 5700 4800 5700
Wire Wire Line
	4800 5700 4800 2700
Wire Wire Line
	4800 2700 5150 2700
Wire Wire Line
	10300 2400 7450 2400
Wire Wire Line
	7450 2400 7450 5750
Wire Wire Line
	7450 5750 4750 5750
Wire Wire Line
	4750 5750 4750 2800
Wire Wire Line
	4750 2800 5150 2800
Wire Wire Line
	10300 2500 7500 2500
Wire Wire Line
	7500 2500 7500 5800
Wire Wire Line
	7500 5800 4700 5800
Wire Wire Line
	4700 5800 4700 2600
Wire Wire Line
	4700 2600 5150 2600
Wire Wire Line
	10300 2600 7550 2600
Wire Wire Line
	7550 2600 7550 850 
Wire Wire Line
	7550 850  5100 850 
Wire Wire Line
	5100 850  5100 2400
Wire Wire Line
	5100 2400 5150 2400
Wire Wire Line
	10300 2800 7550 2800
Wire Wire Line
	7550 2800 7550 5850
Wire Wire Line
	5100 5850 5100 4000
Wire Wire Line
	5100 4000 5150 4000
Wire Wire Line
	5100 5850 7550 5850
Wire Wire Line
	10300 2900 7600 2900
Wire Wire Line
	7600 2900 7600 800 
Wire Wire Line
	7600 800  5050 800 
Wire Wire Line
	5050 800  5050 3600
Wire Wire Line
	5050 3600 5150 3600
Wire Wire Line
	10300 3000 7650 3000
Wire Wire Line
	7650 3000 7650 750 
Wire Wire Line
	7650 750  5000 750 
Wire Wire Line
	5000 750  5000 800 
Wire Wire Line
	5000 800  4950 800 
Wire Wire Line
	4950 800  4950 3100
Wire Wire Line
	4950 3100 5150 3100
Wire Wire Line
	10300 3100 7600 3100
Wire Wire Line
	7600 3100 7600 5950
Wire Wire Line
	7600 5950 3150 5950
Wire Wire Line
	3150 5950 3150 3400
Wire Wire Line
	3150 3400 5150 3400
Wire Wire Line
	10300 3200 7700 3200
Wire Wire Line
	7700 3200 7700 700 
Wire Wire Line
	7700 700  4900 700 
Wire Wire Line
	4900 700  4900 3000
Wire Wire Line
	4900 3000 5150 3000
Wire Wire Line
	10300 3300 7800 3300
Wire Wire Line
	7800 3300 7800 650 
Wire Wire Line
	4750 650  4750 2500
Wire Wire Line
	4750 2500 5150 2500
Wire Wire Line
	4750 650  7800 650 
Wire Wire Line
	10300 3800 7700 3800
Wire Wire Line
	7700 3800 7700 3900
Wire Wire Line
	7700 3900 6050 3900
Wire Wire Line
	10300 3900 7750 3900
Wire Wire Line
	7750 3900 7750 3500
Wire Wire Line
	7750 3500 6050 3500
Wire Wire Line
	10300 4000 7800 4000
Wire Wire Line
	7800 4000 7800 4400
Wire Wire Line
	7800 4400 6050 4400
Wire Wire Line
	10300 4100 7850 4100
Wire Wire Line
	7850 4100 7850 4500
Wire Wire Line
	7850 4500 6050 4500
Wire Wire Line
	10300 4200 7750 4200
Wire Wire Line
	7750 4200 7750 4100
Wire Wire Line
	7750 4100 6050 4100
Wire Wire Line
	10300 4300 7900 4300
Wire Wire Line
	7900 4300 7900 5000
Wire Wire Line
	7900 5000 6050 5000
Wire Wire Line
	10300 4800 7950 4800
Wire Wire Line
	7950 4800 7950 3700
Wire Wire Line
	7950 3700 6050 3700
Wire Wire Line
	10300 4900 7050 4900
Wire Wire Line
	7050 4900 7050 4200
Wire Wire Line
	7050 4200 6050 4200
Wire Wire Line
	10300 5000 8000 5000
Wire Wire Line
	8000 5000 8000 4600
Wire Wire Line
	8000 4600 6050 4600
Wire Wire Line
	10300 5100 7100 5100
Wire Wire Line
	7100 5100 7100 4300
Wire Wire Line
	7100 4300 6050 4300
Wire Wire Line
	10300 5200 7000 5200
Wire Wire Line
	7000 5200 7000 4800
Wire Wire Line
	7000 4800 6050 4800
Wire Wire Line
	10300 5300 6050 5300
Wire Wire Line
	6050 5300 6050 5200
Wire Wire Line
	10300 5400 6100 5400
Wire Wire Line
	6100 5400 6100 5100
Wire Wire Line
	6100 5100 6050 5100
Wire Wire Line
	7700 5500 7700 6050
Wire Wire Line
	7700 6050 6200 6050
Wire Wire Line
	6200 6050 6200 4900
Wire Wire Line
	6200 4900 6050 4900
Wire Wire Line
	7700 5500 10300 5500
Wire Wire Line
	10300 5600 8550 5600
Wire Wire Line
	8550 5600 8550 4700
Wire Wire Line
	8550 4700 6050 4700
$EndSCHEMATC
