(module ground_enclosure_500x500 (layer F.Cu) (tedit 5A4119EC)
  (fp_text reference GE1 (at 0.34 -3.69) (layer F.SilkS)
    (effects (font (size 1 1) (thickness 0.15)))
  )
  (fp_text value Ground_Enclosure (at 0.11 -2.55) (layer F.Fab)
    (effects (font (size 1 1) (thickness 0.15)))
  )
  (pad G connect rect (at 0 0) (size 0.02 0.02) (layers F.Cu F.Mask)
    (solder_mask_margin 0.01) (solder_paste_margin 0.01) (clearance 0.01))
)
