G04 #@! TF.FileFunction,Copper,L1,Top,Signal*
%FSLAX46Y46*%
G04 Gerber Fmt 4.6, Leading zero omitted, Abs format (unit mm)*
G04 Created by KiCad (PCBNEW 4.0.7) date 02/14/18 15:06:50*
%MOMM*%
%LPD*%
G01*
G04 APERTURE LIST*
%ADD10C,0.100000*%
%ADD11C,0.800000*%
%ADD12R,0.900000X0.900000*%
%ADD13C,0.900000*%
G04 APERTURE END LIST*
D10*
D11*
X148590000Y-104140000D03*
X148590000Y-105410000D03*
X148590000Y-106680000D03*
X148590000Y-107950000D03*
X148590000Y-109220000D03*
X148590000Y-110490000D03*
X148590000Y-111760000D03*
X148590000Y-113030000D03*
X148590000Y-114300000D03*
X148590000Y-115570000D03*
X160020000Y-104140000D03*
X160020000Y-105410000D03*
X160020000Y-106680000D03*
X160020000Y-107950000D03*
X160020000Y-109220000D03*
X160020000Y-110490000D03*
X160020000Y-111760000D03*
X160020000Y-113030000D03*
X160020000Y-114300000D03*
X160020000Y-115570000D03*
D12*
X152400000Y-104140000D03*
D13*
X152400000Y-105410000D03*
X152400000Y-106680000D03*
X152400000Y-107950000D03*
X152400000Y-109220000D03*
X152400000Y-110490000D03*
X152400000Y-111760000D03*
X152400000Y-113030000D03*
X152400000Y-114300000D03*
X152400000Y-115570000D03*
X153670000Y-104140000D03*
X153670000Y-105410000D03*
X153670000Y-106680000D03*
X153670000Y-107950000D03*
X153670000Y-109220000D03*
X153670000Y-110490000D03*
X153670000Y-111760000D03*
X153670000Y-113030000D03*
X153670000Y-114300000D03*
X153670000Y-115570000D03*
X154940000Y-104140000D03*
X154940000Y-105410000D03*
X154940000Y-106680000D03*
X154940000Y-107950000D03*
X154940000Y-109220000D03*
X154940000Y-110490000D03*
X154940000Y-111760000D03*
X154940000Y-113030000D03*
X154940000Y-114300000D03*
X154940000Y-115570000D03*
X156210000Y-104140000D03*
X156210000Y-105410000D03*
X156210000Y-106680000D03*
X156210000Y-107950000D03*
X156210000Y-109220000D03*
X156210000Y-110490000D03*
X156210000Y-111760000D03*
X156210000Y-113030000D03*
X156210000Y-114300000D03*
X156210000Y-115570000D03*
D10*
X152400000Y-104140000D02*
X148590000Y-104140000D01*
X148590000Y-105410000D02*
X152400000Y-105410000D01*
X152400000Y-106680000D02*
X148590000Y-106680000D01*
X148590000Y-107950000D02*
X152400000Y-107950000D01*
X152400000Y-109220000D02*
X148590000Y-109220000D01*
X148590000Y-110490000D02*
X152400000Y-110490000D01*
X152400000Y-111760000D02*
X148590000Y-111760000D01*
X148590000Y-113030000D02*
X152400000Y-113030000D01*
X152400000Y-114300000D02*
X148590000Y-114300000D01*
X148590000Y-115570000D02*
X152400000Y-115570000D01*
X156210000Y-104140000D02*
X160020000Y-104140000D01*
X160020000Y-105410000D02*
X156210000Y-105410000D01*
X156210000Y-106680000D02*
X160020000Y-106680000D01*
X160020000Y-107950000D02*
X156210000Y-107950000D01*
X156210000Y-109220000D02*
X160020000Y-109220000D01*
X160020000Y-110490000D02*
X156210000Y-110490000D01*
X156210000Y-111760000D02*
X160020000Y-111760000D01*
X160020000Y-113030000D02*
X156210000Y-113030000D01*
X156210000Y-114300000D02*
X160020000Y-114300000D01*
X160020000Y-115570000D02*
X156210000Y-115570000D01*
M02*
