M48
;DRILL file {KiCad 4.0.7} date 02/14/18 15:06:47
;FORMAT={-:-/ absolute / metric / decimal}
FMAT,2
METRIC,TZ
T1C0.500
%
G90
G05
M71
T1
X152.4Y-104.14
X152.4Y-105.41
X152.4Y-106.68
X152.4Y-107.95
X152.4Y-109.22
X152.4Y-110.49
X152.4Y-111.76
X152.4Y-113.03
X152.4Y-114.3
X152.4Y-115.57
X153.67Y-104.14
X153.67Y-105.41
X153.67Y-106.68
X153.67Y-107.95
X153.67Y-109.22
X153.67Y-110.49
X153.67Y-111.76
X153.67Y-113.03
X153.67Y-114.3
X153.67Y-115.57
X154.94Y-104.14
X154.94Y-105.41
X154.94Y-106.68
X154.94Y-107.95
X154.94Y-109.22
X154.94Y-110.49
X154.94Y-111.76
X154.94Y-113.03
X154.94Y-114.3
X154.94Y-115.57
X156.21Y-104.14
X156.21Y-105.41
X156.21Y-106.68
X156.21Y-107.95
X156.21Y-109.22
X156.21Y-110.49
X156.21Y-111.76
X156.21Y-113.03
X156.21Y-114.3
X156.21Y-115.57
T0
M30
