EESchema Schematic File Version 2
LIBS:power
LIBS:device
LIBS:switches
LIBS:relays
LIBS:motors
LIBS:transistors
LIBS:conn
LIBS:linear
LIBS:regul
LIBS:74xx
LIBS:cmos4000
LIBS:adc-dac
LIBS:memory
LIBS:xilinx
LIBS:microcontrollers
LIBS:dsp
LIBS:microchip
LIBS:analog_switches
LIBS:motorola
LIBS:texas
LIBS:intel
LIBS:audio
LIBS:interface
LIBS:digital-audio
LIBS:philips
LIBS:display
LIBS:cypress
LIBS:siliconi
LIBS:opto
LIBS:atmel
LIBS:contrib
LIBS:valves
LIBS:samtec_molc_110_01_s_q
LIBS:a16pinout
LIBS:electrode
LIBS:ground_enclosure
LIBS:64 channel-cache
EELAYER 25 0
EELAYER END
$Descr A4 11693 8268
encoding utf-8
Sheet 1 1
Title ""
Date ""
Rev ""
Comp ""
Comment1 ""
Comment2 ""
Comment3 ""
Comment4 ""
$EndDescr
$Comp
L SAMTEC_MOLC_110_01_S_Q MOLC1
U 1 1 5A3E3DCD
P 3450 1450
F 0 "MOLC1" H 3450 1750 60  0000 C CNN
F 1 "SAMTEC_MOLC_110_01_S_Q" H 3450 1900 60  0000 C CNN
F 2 "SAMTEC:SAMTEC_MOLC_110_01_s_q" H 3500 2200 60  0001 C CNN
F 3 "" H 3500 2200 60  0001 C CNN
	1    3450 1450
	-1   0    0    -1  
$EndComp
$Comp
L Ground_Enclosure GE1
U 1 1 5A40E63F
P 1850 5200
F 0 "GE1" H 1850 5300 60  0000 C CNN
F 1 "Ground_Enclosure" H 1850 5450 60  0000 C CNN
F 2 "measurement_electrodes:measurement_electrode_100mkm" H 1850 5200 60  0001 C CNN
F 3 "" H 1850 5200 60  0001 C CNN
	1    1850 5200
	0    1    1    0   
$EndComp
$Comp
L ECOG_HEX_500 ECOG?1
U 1 1 5A4101A2
P 4650 1800
F 0 "ECOG?1" H 5250 2000 60  0000 C CNN
F 1 "ECOG_HEX_500" H 5250 2150 60  0000 C CNN
F 2 "measurement_electrodes:ECOG_HEX_500" H 4700 2550 60  0001 C CNN
F 3 "" H 4700 2550 60  0001 C CNN
	1    4650 1800
	1    0    0    -1  
$EndComp
$Comp
L SAMTEC_MOLC_110_01_S_Q MOLC2
U 1 1 5A41165B
P 7050 1450
F 0 "MOLC2" H 7050 1750 60  0000 C CNN
F 1 "SAMTEC_MOLC_110_01_S_Q" H 7050 1900 60  0000 C CNN
F 2 "SAMTEC:SAMTEC_MOLC_110_01_s_q" H 7100 2200 60  0001 C CNN
F 3 "" H 7100 2200 60  0001 C CNN
	1    7050 1450
	1    0    0    -1  
$EndComp
Connection ~ 1850 5200
Wire Wire Line
	3450 1450 4000 1450
Wire Wire Line
	4000 1450 4000 3400
Wire Wire Line
	4000 3400 4650 3400
Wire Wire Line
	3450 1550 3450 1250
Wire Wire Line
	3450 1250 5950 1250
Wire Wire Line
	5950 1250 5950 2600
Wire Wire Line
	5950 2600 5850 2600
Wire Wire Line
	3450 1650 5900 1650
Wire Wire Line
	5900 1650 5900 2000
Wire Wire Line
	5900 2000 5850 2000
Wire Wire Line
	3450 1750 4050 1750
Wire Wire Line
	4050 1750 4050 4000
Wire Wire Line
	4050 4000 4650 4000
Wire Wire Line
	3450 1850 4100 1850
Wire Wire Line
	4100 1850 4100 3300
Wire Wire Line
	4100 3300 4650 3300
Wire Wire Line
	3450 1950 3450 900 
Wire Wire Line
	3450 900  6000 900 
Wire Wire Line
	6000 900  6000 4400
Wire Wire Line
	6000 4400 5850 4400
Wire Wire Line
	3450 2050 3500 2050
Wire Wire Line
	3500 2050 3500 850 
Wire Wire Line
	3500 850  6050 850 
Wire Wire Line
	6050 850  6050 4300
Wire Wire Line
	6050 4300 5850 4300
Wire Wire Line
	3450 2150 3550 2150
Wire Wire Line
	3550 2150 3550 800 
Wire Wire Line
	3550 800  6100 800 
Wire Wire Line
	6100 800  6100 3800
Wire Wire Line
	6100 3800 5850 3800
Wire Wire Line
	3450 2250 3600 2250
Wire Wire Line
	3600 2250 3600 1000
Wire Wire Line
	3600 1000 6150 1000
Wire Wire Line
	6150 1000 6150 3200
Wire Wire Line
	6150 3200 5850 3200
Wire Wire Line
	3450 2350 4150 2350
Wire Wire Line
	4150 2350 4150 3900
Wire Wire Line
	4150 3900 4650 3900
Wire Wire Line
	3450 2850 3650 2850
Wire Wire Line
	3650 2850 3650 1100
Wire Wire Line
	3650 1100 6200 1100
Wire Wire Line
	6200 1100 6200 3900
Wire Wire Line
	6200 3900 5850 3900
Wire Wire Line
	3450 2950 3700 2950
Wire Wire Line
	3700 2950 3700 1200
Wire Wire Line
	3700 1200 6250 1200
Wire Wire Line
	6250 1200 6250 2100
Wire Wire Line
	6250 2100 5850 2100
Wire Wire Line
	3450 3050 3750 3050
Wire Wire Line
	3750 3050 3750 2800
Wire Wire Line
	3750 2800 4650 2800
Wire Wire Line
	3450 3150 3800 3150
Wire Wire Line
	3800 3150 3800 1150
Wire Wire Line
	3800 1150 6300 1150
Wire Wire Line
	6300 1150 6300 2500
Wire Wire Line
	6300 2500 5850 2500
Wire Wire Line
	3450 3250 3850 3250
Wire Wire Line
	3850 3250 3850 1300
Wire Wire Line
	3850 1300 6350 1300
Wire Wire Line
	6350 1300 6350 3250
Wire Wire Line
	6350 3250 5850 3250
Wire Wire Line
	5850 3250 5850 3300
Wire Wire Line
	3450 3350 3750 3350
Wire Wire Line
	3750 3350 3750 1350
Wire Wire Line
	3750 1350 6400 1350
Wire Wire Line
	6400 1350 6400 3700
Wire Wire Line
	6400 3700 5850 3700
Wire Wire Line
	3450 3850 3900 3850
Wire Wire Line
	3900 3850 3900 6250
Wire Wire Line
	3900 6250 6100 6250
Wire Wire Line
	3450 3950 3850 3950
Wire Wire Line
	3850 3950 3850 6200
Wire Wire Line
	3850 6200 6300 6200
Wire Wire Line
	6300 6200 6300 2900
Wire Wire Line
	6300 2900 5850 2900
Wire Wire Line
	3450 4050 4200 4050
Wire Wire Line
	4200 4050 4200 2500
Wire Wire Line
	4200 2500 4650 2500
Wire Wire Line
	3450 4150 4200 4150
Wire Wire Line
	4200 4150 4200 4300
Wire Wire Line
	4200 4300 4650 4300
Wire Wire Line
	3450 4250 3950 4250
Wire Wire Line
	3950 4250 3950 6150
Wire Wire Line
	3950 6150 5850 6150
Wire Wire Line
	5850 6150 5850 4700
Wire Wire Line
	3450 4350 4250 4350
Wire Wire Line
	4250 4350 4250 1400
Wire Wire Line
	4250 1400 6450 1400
Wire Wire Line
	6450 1400 6450 1900
Wire Wire Line
	6450 1900 5850 1900
Wire Wire Line
	3450 4450 4300 4450
Wire Wire Line
	4300 4450 4300 3100
Wire Wire Line
	4300 3100 4650 3100
Wire Wire Line
	3450 4550 4350 4550
Wire Wire Line
	4350 4550 4350 1450
Wire Wire Line
	4350 1450 6500 1450
Wire Wire Line
	6500 1450 6500 1800
Wire Wire Line
	6500 1800 5850 1800
Wire Wire Line
	3450 4650 4400 4650
Wire Wire Line
	4400 4650 4400 3700
Wire Wire Line
	4400 3700 4650 3700
Wire Wire Line
	3450 4750 4450 4750
Wire Wire Line
	4450 4750 4450 1500
Wire Wire Line
	4450 1500 6550 1500
Wire Wire Line
	6550 1500 6550 2400
Wire Wire Line
	6550 2400 5850 2400
Wire Wire Line
	3450 4850 4500 4850
Wire Wire Line
	4500 4850 4500 3200
Wire Wire Line
	4500 3200 4650 3200
Wire Wire Line
	3450 4950 4000 4950
Wire Wire Line
	4000 4950 4000 6100
Wire Wire Line
	4000 6100 6550 6100
Wire Wire Line
	6550 6100 6550 3000
Wire Wire Line
	6550 3000 5850 3000
Wire Wire Line
	3450 5050 4050 5050
Wire Wire Line
	4050 5050 4050 6000
Wire Wire Line
	4050 6000 6450 6000
Wire Wire Line
	6450 6000 6450 3100
Wire Wire Line
	6450 3100 5850 3100
Wire Wire Line
	3450 5150 4100 5150
Wire Wire Line
	4100 5150 4100 5900
Wire Wire Line
	4100 5900 6500 5900
Wire Wire Line
	6500 5900 6500 3600
Wire Wire Line
	6500 3600 5850 3600
Wire Wire Line
	3450 5250 4150 5250
Wire Wire Line
	4150 5250 4150 6050
Wire Wire Line
	4150 6050 6400 6050
Wire Wire Line
	6400 6050 6400 4200
Wire Wire Line
	6400 4200 5850 4200
Wire Wire Line
	3450 5350 3800 5350
Wire Wire Line
	3800 5350 3800 3800
Wire Wire Line
	3800 3800 4650 3800
Wire Wire Line
	7050 1450 7050 600 
Wire Wire Line
	7050 600  4600 600 
Wire Wire Line
	4600 600  4600 2900
Wire Wire Line
	4600 2900 4650 2900
Wire Wire Line
	7050 1550 7000 1550
Wire Wire Line
	7000 1550 7000 700 
Wire Wire Line
	7000 700  4550 700 
Wire Wire Line
	4550 700  4550 3500
Wire Wire Line
	4550 3500 4650 3500
Wire Wire Line
	7050 1650 6950 1650
Wire Wire Line
	6950 1650 6950 650 
Wire Wire Line
	6950 650  4500 650 
Wire Wire Line
	4500 650  4500 2200
Wire Wire Line
	4500 2200 4650 2200
Wire Wire Line
	7050 1750 6900 1750
Wire Wire Line
	6900 1750 6900 750 
Wire Wire Line
	6900 750  4400 750 
Wire Wire Line
	4400 750  4400 4100
Wire Wire Line
	4400 4100 4650 4100
Wire Wire Line
	7050 1850 6600 1850
Wire Wire Line
	6600 1850 6600 5800
Wire Wire Line
	6600 5800 4550 5800
Wire Wire Line
	4550 5800 4550 4600
Wire Wire Line
	4550 4600 4650 4600
Wire Wire Line
	7050 1950 6500 1950
Wire Wire Line
	6500 1950 6500 2700
Wire Wire Line
	6500 2700 5850 2700
Wire Wire Line
	7050 2050 6450 2050
Wire Wire Line
	6450 2050 6450 4500
Wire Wire Line
	6450 4500 5850 4500
Wire Wire Line
	6850 2150 7050 2150
Wire Wire Line
	6850 550  6850 2150
Wire Wire Line
	4300 550  6850 550 
Wire Wire Line
	4300 550  4300 2100
Wire Wire Line
	4300 2100 4650 2100
Wire Wire Line
	7050 2250 6800 2250
Wire Wire Line
	6800 2250 6800 500 
Wire Wire Line
	6800 500  3900 500 
Wire Wire Line
	3900 500  3900 2700
Wire Wire Line
	3900 2700 4650 2700
Wire Wire Line
	7050 2350 6650 2350
Wire Wire Line
	6650 2350 6650 5750
Wire Wire Line
	6650 5750 4600 5750
Wire Wire Line
	4600 5750 4600 4500
Wire Wire Line
	4600 4500 4650 4500
Wire Wire Line
	7050 3050 7700 3050
Wire Wire Line
	7700 3050 7700 150 
Wire Wire Line
	7700 150  4650 150 
Wire Wire Line
	4650 150  4650 1800
Wire Wire Line
	7050 3150 7900 3150
Wire Wire Line
	7900 3150 7900 2200
Wire Wire Line
	7900 2200 5850 2200
Wire Wire Line
	7050 3250 8100 3250
Wire Wire Line
	8100 3250 8100 2300
Wire Wire Line
	8100 2300 4650 2300
Wire Wire Line
	7050 3350 7900 3350
Wire Wire Line
	7900 3350 7900 3400
Wire Wire Line
	7900 3400 5850 3400
Wire Wire Line
	7050 3950 8150 3950
Wire Wire Line
	8150 3950 8150 4700
Wire Wire Line
	8150 4700 4650 4700
Connection ~ 6100 4100
Wire Wire Line
	5850 4100 6100 4100
Wire Wire Line
	6100 4100 6100 6250
Wire Wire Line
	7050 4050 5850 4050
Wire Wire Line
	5850 4050 5850 4000
Wire Wire Line
	7050 4150 8650 4150
Wire Wire Line
	8650 4150 8650 2400
Wire Wire Line
	8650 2400 4650 2400
Wire Wire Line
	7050 4250 8850 4250
Wire Wire Line
	8850 4250 8850 2800
Wire Wire Line
	8850 2800 5850 2800
Wire Wire Line
	7050 4350 9150 4350
Wire Wire Line
	9150 4350 9150 3000
Wire Wire Line
	9150 3000 4650 3000
Wire Wire Line
	7050 4450 6000 4450
Wire Wire Line
	6000 4450 6000 4600
Wire Wire Line
	6000 4600 5850 4600
Wire Wire Line
	7050 4550 9300 4550
Wire Wire Line
	9300 4550 9300 1900
Wire Wire Line
	9300 1900 4650 1900
Wire Wire Line
	7050 4650 5100 4650
Wire Wire Line
	5100 4650 5100 3600
Wire Wire Line
	5100 3600 4650 3600
Wire Wire Line
	7050 4750 4650 4750
Wire Wire Line
	4650 4750 4650 4800
Wire Wire Line
	7050 4850 5200 4850
Wire Wire Line
	5200 4850 5200 4200
Wire Wire Line
	5200 4200 4650 4200
Wire Wire Line
	7050 4950 5450 4950
Wire Wire Line
	5450 4950 5450 2350
Wire Wire Line
	5450 2350 5850 2350
Wire Wire Line
	5850 2350 5850 2300
Wire Wire Line
	7050 5050 5250 5050
Wire Wire Line
	5250 5050 5250 2000
Wire Wire Line
	5250 2000 4650 2000
Wire Wire Line
	7050 5150 5350 5150
Wire Wire Line
	5350 5150 5350 3500
Wire Wire Line
	5350 3500 5850 3500
Wire Wire Line
	7050 5250 5050 5250
Wire Wire Line
	5050 5250 5050 4400
Wire Wire Line
	5050 4400 4650 4400
Wire Wire Line
	7050 5350 5150 5350
Wire Wire Line
	5150 5350 5150 2600
Wire Wire Line
	5150 2600 4650 2600
Wire Wire Line
	3450 5200 1850 5200
Wire Wire Line
	3450 2550 3450 5200
Connection ~ 3450 3550
Wire Wire Line
	7050 3550 3450 3550
Wire Wire Line
	7050 3550 7050 2550
$EndSCHEMATC
