G04 #@! TF.GenerationSoftware,KiCad,Pcbnew,(5.0.0)*
G04 #@! TF.CreationDate,2018-08-13T20:55:57+03:00*
G04 #@! TF.ProjectId,64 channel,3634206368616E6E656C2E6B69636164,rev?*
G04 #@! TF.SameCoordinates,Original*
G04 #@! TF.FileFunction,Copper,L1,Top,Signal*
G04 #@! TF.FilePolarity,Positive*
%FSLAX46Y46*%
G04 Gerber Fmt 4.6, Leading zero omitted, Abs format (unit mm)*
G04 Created by KiCad (PCBNEW (5.0.0)) date 08/13/18 20:55:57*
%MOMM*%
%LPD*%
G01*
G04 APERTURE LIST*
G04 #@! TA.AperFunction,ComponentPad*
%ADD10R,0.900000X0.900000*%
G04 #@! TD*
G04 #@! TA.AperFunction,ComponentPad*
%ADD11C,0.900000*%
G04 #@! TD*
G04 #@! TA.AperFunction,ConnectorPad*
%ADD12C,0.050000*%
G04 #@! TD*
G04 #@! TA.AperFunction,Conductor*
%ADD13C,0.015000*%
G04 #@! TD*
G04 APERTURE END LIST*
D10*
G04 #@! TO.P,MOLC1,0*
G04 #@! TO.N,Net-(ECOG1-Pad15)*
X154964996Y-134489996D03*
D11*
G04 #@! TO.P,MOLC1,1*
G04 #@! TO.N,Net-(ECOG1-Pad6)*
X154964996Y-135759996D03*
G04 #@! TO.P,MOLC1,2*
G04 #@! TO.N,Net-(ECOG1-Pad10)*
X154964996Y-137029996D03*
G04 #@! TO.P,MOLC1,3*
G04 #@! TO.N,Net-(ECOG1-Pad9)*
X154964996Y-138299996D03*
G04 #@! TO.P,MOLC1,4*
G04 #@! TO.N,Net-(ECOG1-Pad0)*
X154964996Y-139569996D03*
G04 #@! TO.P,MOLC1,5*
G04 #@! TO.N,Net-(ECOG1-Pad4)*
X154964996Y-140839996D03*
G04 #@! TO.P,MOLC1,6*
G04 #@! TO.N,Net-(ECOG1-Pad5)*
X154964996Y-142109996D03*
G04 #@! TO.P,MOLC1,7*
G04 #@! TO.N,Net-(ECOG1-Pad3)*
X154964996Y-143379996D03*
G04 #@! TO.P,MOLC1,8*
G04 #@! TO.N,Net-(ECOG1-Pad1)*
X154964996Y-144649996D03*
G04 #@! TO.P,MOLC1,9*
G04 #@! TO.N,Net-(MOLC1-Pad9)*
X154964996Y-145919996D03*
G04 #@! TO.P,MOLC1,10*
G04 #@! TO.N,Net-(ECOG1-Pad17)*
X156234996Y-134489996D03*
G04 #@! TO.P,MOLC1,11*
G04 #@! TO.N,Net-(ECOG1-Pad13)*
X156234996Y-135759996D03*
G04 #@! TO.P,MOLC1,12*
G04 #@! TO.N,Net-(ECOG1-Pad8)*
X156234996Y-137029996D03*
G04 #@! TO.P,MOLC1,13*
G04 #@! TO.N,Net-(ECOG1-Pad11)*
X156234996Y-138299996D03*
G04 #@! TO.P,MOLC1,14*
G04 #@! TO.N,Net-(ECOG1-Pad7)*
X156234996Y-139569996D03*
G04 #@! TO.P,MOLC1,15*
G04 #@! TO.N,Net-(ECOG1-Pad2)*
X156234996Y-140839996D03*
G04 #@! TO.P,MOLC1,16*
G04 #@! TO.N,Net-(MOLC1-Pad16)*
X156234996Y-142109996D03*
G04 #@! TO.P,MOLC1,17*
G04 #@! TO.N,Net-(MOLC1-Pad17)*
X156234996Y-143379996D03*
G04 #@! TO.P,MOLC1,18*
G04 #@! TO.N,Net-(MOLC1-Pad18)*
X156234996Y-144649996D03*
G04 #@! TO.P,MOLC1,19*
G04 #@! TO.N,Net-(MOLC1-Pad19)*
X156234996Y-145919996D03*
G04 #@! TO.P,MOLC1,20*
G04 #@! TO.N,Net-(ECOG1-Pad46)*
X157504996Y-134489996D03*
G04 #@! TO.P,MOLC1,21*
G04 #@! TO.N,Net-(ECOG1-Pad42)*
X157504996Y-135759996D03*
G04 #@! TO.P,MOLC1,22*
G04 #@! TO.N,Net-(ECOG1-Pad51)*
X157504996Y-137029996D03*
G04 #@! TO.P,MOLC1,23*
G04 #@! TO.N,Net-(ECOG1-Pad52)*
X157504996Y-138299996D03*
G04 #@! TO.P,MOLC1,24*
G04 #@! TO.N,Net-(ECOG1-Pad48)*
X157504996Y-139569996D03*
G04 #@! TO.P,MOLC1,25*
G04 #@! TO.N,Net-(ECOG1-Pad57)*
X157504996Y-140839996D03*
G04 #@! TO.P,MOLC1,26*
G04 #@! TO.N,Net-(MOLC1-Pad26)*
X157504996Y-142109996D03*
G04 #@! TO.P,MOLC1,27*
G04 #@! TO.N,Net-(MOLC1-Pad27)*
X157504996Y-143379996D03*
G04 #@! TO.P,MOLC1,28*
G04 #@! TO.N,Net-(MOLC1-Pad28)*
X157504996Y-144649996D03*
G04 #@! TO.P,MOLC1,29*
G04 #@! TO.N,Net-(MOLC1-Pad29)*
X157504996Y-145919996D03*
G04 #@! TO.P,MOLC1,30*
G04 #@! TO.N,Net-(ECOG1-Pad44)*
X158774996Y-134489996D03*
G04 #@! TO.P,MOLC1,31*
G04 #@! TO.N,Net-(ECOG1-Pad49)*
X158774996Y-135759996D03*
G04 #@! TO.P,MOLC1,32*
G04 #@! TO.N,Net-(ECOG1-Pad53)*
X158774996Y-137029996D03*
G04 #@! TO.P,MOLC1,33*
G04 #@! TO.N,Net-(ECOG1-Pad50)*
X158774996Y-138299996D03*
G04 #@! TO.P,MOLC1,34*
G04 #@! TO.N,Net-(ECOG1-Pad55)*
X158774996Y-139569996D03*
G04 #@! TO.P,MOLC1,35*
G04 #@! TO.N,Net-(ECOG1-Pad59)*
X158774996Y-140839996D03*
G04 #@! TO.P,MOLC1,36*
G04 #@! TO.N,Net-(ECOG1-Pad58)*
X158774996Y-142109996D03*
G04 #@! TO.P,MOLC1,37*
G04 #@! TO.N,Net-(ECOG1-Pad56)*
X158774996Y-143379996D03*
G04 #@! TO.P,MOLC1,38*
G04 #@! TO.N,Net-(ECOG1-Pad54)*
X158774996Y-144649996D03*
G04 #@! TO.P,MOLC1,39*
G04 #@! TO.N,Net-(MOLC1-Pad39)*
X158774996Y-145919996D03*
G04 #@! TD*
D12*
G04 #@! TO.P,ECOG1,54*
G04 #@! TO.N,Net-(ECOG1-Pad54)*
X158650000Y-68100000D03*
G04 #@! TO.P,ECOG1,48*
G04 #@! TO.N,Net-(ECOG1-Pad48)*
X158250000Y-68100000D03*
G04 #@! TO.P,ECOG1,42*
G04 #@! TO.N,Net-(ECOG1-Pad42)*
X157850000Y-68100000D03*
G04 #@! TO.P,ECOG1,36*
G04 #@! TO.N,Net-(ECOG1-Pad36)*
X157450000Y-68100000D03*
G04 #@! TO.P,ECOG1,30*
G04 #@! TO.N,Net-(ECOG1-Pad30)*
X157050000Y-68100000D03*
G04 #@! TO.P,ECOG1,24*
G04 #@! TO.N,Net-(ECOG1-Pad24)*
X156650000Y-68100000D03*
G04 #@! TO.P,ECOG1,18*
G04 #@! TO.N,Net-(ECOG1-Pad18)*
X156250000Y-68100000D03*
G04 #@! TO.P,ECOG1,12*
G04 #@! TO.N,Net-(ECOG1-Pad12)*
X155850000Y-68100000D03*
G04 #@! TO.P,ECOG1,6*
G04 #@! TO.N,Net-(ECOG1-Pad6)*
X155450000Y-68100000D03*
G04 #@! TO.P,ECOG1,0*
G04 #@! TO.N,Net-(ECOG1-Pad0)*
X155050000Y-68100000D03*
X155050000Y-68100000D03*
G04 #@! TO.P,ECOG1,1*
G04 #@! TO.N,Net-(ECOG1-Pad1)*
X155050000Y-68500000D03*
G04 #@! TO.P,ECOG1,2*
G04 #@! TO.N,Net-(ECOG1-Pad2)*
X155050000Y-68900000D03*
G04 #@! TO.P,ECOG1,3*
G04 #@! TO.N,Net-(ECOG1-Pad3)*
X155050000Y-69300000D03*
G04 #@! TO.P,ECOG1,4*
G04 #@! TO.N,Net-(ECOG1-Pad4)*
X155050000Y-69700000D03*
G04 #@! TO.P,ECOG1,5*
G04 #@! TO.N,Net-(ECOG1-Pad5)*
X155050000Y-70100000D03*
G04 #@! TO.P,ECOG1,6*
G04 #@! TO.N,Net-(ECOG1-Pad6)*
X155450000Y-68100000D03*
G04 #@! TO.P,ECOG1,7*
G04 #@! TO.N,Net-(ECOG1-Pad7)*
X155450000Y-68500000D03*
G04 #@! TO.P,ECOG1,8*
G04 #@! TO.N,Net-(ECOG1-Pad8)*
X155450000Y-68900000D03*
G04 #@! TO.P,ECOG1,9*
G04 #@! TO.N,Net-(ECOG1-Pad9)*
X155450000Y-69300000D03*
G04 #@! TO.P,ECOG1,10*
G04 #@! TO.N,Net-(ECOG1-Pad10)*
X155450000Y-69700000D03*
G04 #@! TO.P,ECOG1,11*
G04 #@! TO.N,Net-(ECOG1-Pad11)*
X155450000Y-70100000D03*
G04 #@! TO.P,ECOG1,12*
G04 #@! TO.N,Net-(ECOG1-Pad12)*
X155850000Y-68100000D03*
G04 #@! TO.P,ECOG1,13*
G04 #@! TO.N,Net-(ECOG1-Pad13)*
X155850000Y-68500000D03*
G04 #@! TO.P,ECOG1,14*
G04 #@! TO.N,Net-(ECOG1-Pad14)*
X155850000Y-68900000D03*
G04 #@! TO.P,ECOG1,15*
G04 #@! TO.N,Net-(ECOG1-Pad15)*
X155850000Y-69300000D03*
G04 #@! TO.P,ECOG1,16*
G04 #@! TO.N,Net-(ECOG1-Pad16)*
X155850000Y-69700000D03*
G04 #@! TO.P,ECOG1,17*
G04 #@! TO.N,Net-(ECOG1-Pad17)*
X155850000Y-70100000D03*
G04 #@! TO.P,ECOG1,18*
G04 #@! TO.N,Net-(ECOG1-Pad18)*
X156250000Y-68100000D03*
G04 #@! TO.P,ECOG1,19*
G04 #@! TO.N,Net-(ECOG1-Pad19)*
X156250000Y-68500000D03*
G04 #@! TO.P,ECOG1,20*
G04 #@! TO.N,Net-(ECOG1-Pad20)*
X156250000Y-68900000D03*
G04 #@! TO.P,ECOG1,21*
G04 #@! TO.N,Net-(ECOG1-Pad21)*
X156250000Y-69300000D03*
G04 #@! TO.P,ECOG1,22*
G04 #@! TO.N,Net-(ECOG1-Pad22)*
X156250000Y-69700000D03*
G04 #@! TO.P,ECOG1,23*
G04 #@! TO.N,Net-(ECOG1-Pad23)*
X156250000Y-70100000D03*
G04 #@! TO.P,ECOG1,24*
G04 #@! TO.N,Net-(ECOG1-Pad24)*
X156650000Y-68100000D03*
G04 #@! TO.P,ECOG1,25*
G04 #@! TO.N,Net-(ECOG1-Pad25)*
X156650000Y-68500000D03*
G04 #@! TO.P,ECOG1,26*
G04 #@! TO.N,Net-(ECOG1-Pad26)*
X156650000Y-68900000D03*
G04 #@! TO.P,ECOG1,27*
G04 #@! TO.N,Net-(ECOG1-Pad27)*
X156650000Y-69300000D03*
G04 #@! TO.P,ECOG1,28*
G04 #@! TO.N,Net-(ECOG1-Pad28)*
X156650000Y-69700000D03*
G04 #@! TO.P,ECOG1,29*
G04 #@! TO.N,Net-(ECOG1-Pad29)*
X156650000Y-70100000D03*
G04 #@! TO.P,ECOG1,30*
G04 #@! TO.N,Net-(ECOG1-Pad30)*
X157050000Y-68100000D03*
G04 #@! TO.P,ECOG1,31*
G04 #@! TO.N,Net-(ECOG1-Pad31)*
X157050000Y-68500000D03*
G04 #@! TO.P,ECOG1,32*
G04 #@! TO.N,Net-(ECOG1-Pad32)*
X157050000Y-68900000D03*
G04 #@! TO.P,ECOG1,33*
G04 #@! TO.N,Net-(ECOG1-Pad33)*
X157050000Y-69300000D03*
G04 #@! TO.P,ECOG1,34*
G04 #@! TO.N,Net-(ECOG1-Pad34)*
X157050000Y-69700000D03*
G04 #@! TO.P,ECOG1,35*
G04 #@! TO.N,Net-(ECOG1-Pad35)*
X157050000Y-70100000D03*
G04 #@! TO.P,ECOG1,36*
G04 #@! TO.N,Net-(ECOG1-Pad36)*
X157450000Y-68100000D03*
G04 #@! TO.P,ECOG1,37*
G04 #@! TO.N,Net-(ECOG1-Pad37)*
X157450000Y-68500000D03*
G04 #@! TO.P,ECOG1,38*
G04 #@! TO.N,Net-(ECOG1-Pad38)*
X157450000Y-68900000D03*
G04 #@! TO.P,ECOG1,39*
G04 #@! TO.N,Net-(ECOG1-Pad39)*
X157450000Y-69300000D03*
G04 #@! TO.P,ECOG1,40*
G04 #@! TO.N,Net-(ECOG1-Pad40)*
X157450000Y-69700000D03*
G04 #@! TO.P,ECOG1,41*
G04 #@! TO.N,Net-(ECOG1-Pad41)*
X157450000Y-70100000D03*
G04 #@! TO.P,ECOG1,42*
G04 #@! TO.N,Net-(ECOG1-Pad42)*
X157850000Y-68100000D03*
G04 #@! TO.P,ECOG1,43*
G04 #@! TO.N,Net-(ECOG1-Pad43)*
X157850000Y-68500000D03*
G04 #@! TO.P,ECOG1,44*
G04 #@! TO.N,Net-(ECOG1-Pad44)*
X157850000Y-68900000D03*
G04 #@! TO.P,ECOG1,45*
G04 #@! TO.N,Net-(ECOG1-Pad45)*
X157850000Y-69300000D03*
G04 #@! TO.P,ECOG1,46*
G04 #@! TO.N,Net-(ECOG1-Pad46)*
X157850000Y-69700000D03*
G04 #@! TO.P,ECOG1,47*
G04 #@! TO.N,Net-(ECOG1-Pad47)*
X157850000Y-70100000D03*
G04 #@! TO.P,ECOG1,48*
G04 #@! TO.N,Net-(ECOG1-Pad48)*
X158250000Y-68100000D03*
G04 #@! TO.P,ECOG1,49*
G04 #@! TO.N,Net-(ECOG1-Pad49)*
X158250000Y-68500000D03*
G04 #@! TO.P,ECOG1,50*
G04 #@! TO.N,Net-(ECOG1-Pad50)*
X158250000Y-68900000D03*
G04 #@! TO.P,ECOG1,51*
G04 #@! TO.N,Net-(ECOG1-Pad51)*
X158250000Y-69300000D03*
G04 #@! TO.P,ECOG1,52*
G04 #@! TO.N,Net-(ECOG1-Pad52)*
X158250000Y-69700000D03*
G04 #@! TO.P,ECOG1,53*
G04 #@! TO.N,Net-(ECOG1-Pad53)*
X158250000Y-70100000D03*
G04 #@! TO.P,ECOG1,54*
G04 #@! TO.N,Net-(ECOG1-Pad54)*
X158650000Y-68100000D03*
G04 #@! TO.P,ECOG1,55*
G04 #@! TO.N,Net-(ECOG1-Pad55)*
X158650000Y-68500000D03*
G04 #@! TO.P,ECOG1,56*
G04 #@! TO.N,Net-(ECOG1-Pad56)*
X158650000Y-68900000D03*
G04 #@! TO.P,ECOG1,57*
G04 #@! TO.N,Net-(ECOG1-Pad57)*
X158650000Y-69300000D03*
G04 #@! TO.P,ECOG1,58*
G04 #@! TO.N,Net-(ECOG1-Pad58)*
X158650000Y-69700000D03*
G04 #@! TO.P,ECOG1,59*
G04 #@! TO.N,Net-(ECOG1-Pad59)*
X158650000Y-70100000D03*
G04 #@! TD*
D10*
G04 #@! TO.P,MOLC2,0*
G04 #@! TO.N,Net-(ECOG1-Pad26)*
X154964996Y-117979996D03*
D11*
G04 #@! TO.P,MOLC2,1*
G04 #@! TO.N,Net-(ECOG1-Pad29)*
X154964996Y-119249996D03*
G04 #@! TO.P,MOLC2,2*
G04 #@! TO.N,Net-(ECOG1-Pad25)*
X154964996Y-120519996D03*
G04 #@! TO.P,MOLC2,3*
G04 #@! TO.N,Net-(ECOG1-Pad20)*
X154964996Y-121789996D03*
G04 #@! TO.P,MOLC2,4*
G04 #@! TO.N,Net-(ECOG1-Pad23)*
X154964996Y-123059996D03*
G04 #@! TO.P,MOLC2,5*
G04 #@! TO.N,Net-(ECOG1-Pad19)*
X154964996Y-124329996D03*
G04 #@! TO.P,MOLC2,6*
G04 #@! TO.N,Net-(ECOG1-Pad12)*
X154964996Y-125599996D03*
G04 #@! TO.P,MOLC2,7*
G04 #@! TO.N,Net-(ECOG1-Pad14)*
X154964996Y-126869996D03*
G04 #@! TO.P,MOLC2,8*
G04 #@! TO.N,Net-(ECOG1-Pad16)*
X154964996Y-128139996D03*
G04 #@! TO.P,MOLC2,9*
G04 #@! TO.N,Net-(MOLC2-Pad9)*
X154964996Y-129409996D03*
G04 #@! TO.P,MOLC2,10*
G04 #@! TO.N,Net-(ECOG1-Pad24)*
X156234996Y-117979996D03*
G04 #@! TO.P,MOLC2,11*
G04 #@! TO.N,Net-(ECOG1-Pad28)*
X156234996Y-119249996D03*
G04 #@! TO.P,MOLC2,12*
G04 #@! TO.N,Net-(ECOG1-Pad27)*
X156234996Y-120519996D03*
G04 #@! TO.P,MOLC2,13*
G04 #@! TO.N,Net-(ECOG1-Pad18)*
X156234996Y-121789996D03*
G04 #@! TO.P,MOLC2,14*
G04 #@! TO.N,Net-(ECOG1-Pad22)*
X156234996Y-123059996D03*
G04 #@! TO.P,MOLC2,15*
G04 #@! TO.N,Net-(ECOG1-Pad21)*
X156234996Y-124329996D03*
G04 #@! TO.P,MOLC2,16*
G04 #@! TO.N,Net-(MOLC2-Pad16)*
X156234996Y-125599996D03*
G04 #@! TO.P,MOLC2,17*
G04 #@! TO.N,Net-(MOLC2-Pad17)*
X156234996Y-126869996D03*
G04 #@! TO.P,MOLC2,18*
G04 #@! TO.N,Net-(MOLC2-Pad18)*
X156234996Y-128139996D03*
G04 #@! TO.P,MOLC2,19*
G04 #@! TO.N,Net-(MOLC2-Pad19)*
X156234996Y-129409996D03*
G04 #@! TO.P,MOLC2,20*
G04 #@! TO.N,Net-(ECOG1-Pad31)*
X157504996Y-117979996D03*
G04 #@! TO.P,MOLC2,21*
G04 #@! TO.N,Net-(ECOG1-Pad35)*
X157504996Y-119249996D03*
G04 #@! TO.P,MOLC2,22*
G04 #@! TO.N,Net-(ECOG1-Pad32)*
X157504996Y-120519996D03*
G04 #@! TO.P,MOLC2,23*
G04 #@! TO.N,Net-(ECOG1-Pad37)*
X157504996Y-121789996D03*
G04 #@! TO.P,MOLC2,24*
G04 #@! TO.N,Net-(ECOG1-Pad41)*
X157504996Y-123059996D03*
G04 #@! TO.P,MOLC2,25*
G04 #@! TO.N,Net-(ECOG1-Pad38)*
X157504996Y-124329996D03*
G04 #@! TO.P,MOLC2,26*
G04 #@! TO.N,Net-(MOLC2-Pad26)*
X157504996Y-125599996D03*
G04 #@! TO.P,MOLC2,27*
G04 #@! TO.N,Net-(MOLC2-Pad27)*
X157504996Y-126869996D03*
G04 #@! TO.P,MOLC2,28*
G04 #@! TO.N,Net-(MOLC2-Pad28)*
X157504996Y-128139996D03*
G04 #@! TO.P,MOLC2,29*
G04 #@! TO.N,Net-(MOLC2-Pad29)*
X157504996Y-129409996D03*
G04 #@! TO.P,MOLC2,30*
G04 #@! TO.N,Net-(ECOG1-Pad33)*
X158774996Y-117979996D03*
G04 #@! TO.P,MOLC2,31*
G04 #@! TO.N,Net-(ECOG1-Pad34)*
X158774996Y-119249996D03*
G04 #@! TO.P,MOLC2,32*
G04 #@! TO.N,Net-(ECOG1-Pad30)*
X158774996Y-120519996D03*
G04 #@! TO.P,MOLC2,33*
G04 #@! TO.N,Net-(ECOG1-Pad39)*
X158774996Y-121789996D03*
G04 #@! TO.P,MOLC2,34*
G04 #@! TO.N,Net-(ECOG1-Pad40)*
X158774996Y-123059996D03*
G04 #@! TO.P,MOLC2,35*
G04 #@! TO.N,Net-(ECOG1-Pad36)*
X158774996Y-124329996D03*
G04 #@! TO.P,MOLC2,36*
G04 #@! TO.N,Net-(ECOG1-Pad43)*
X158774996Y-125599996D03*
G04 #@! TO.P,MOLC2,37*
G04 #@! TO.N,Net-(ECOG1-Pad45)*
X158774996Y-126869996D03*
G04 #@! TO.P,MOLC2,38*
G04 #@! TO.N,Net-(ECOG1-Pad47)*
X158774996Y-128139996D03*
G04 #@! TO.P,MOLC2,39*
G04 #@! TO.N,Net-(MOLC2-Pad39)*
X158774996Y-129409996D03*
G04 #@! TD*
D13*
G04 #@! TO.N,Net-(ECOG1-Pad54)*
X158715000Y-69985000D02*
X158715000Y-69985000D01*
X158674999Y-68124999D02*
X158650000Y-68100000D01*
X158700000Y-69175000D02*
X158700000Y-68150000D01*
X158740000Y-69215000D02*
X158700000Y-69175000D01*
X158700000Y-68150000D02*
X158674999Y-68124999D01*
X158710004Y-69420000D02*
X158740000Y-69390004D01*
X158710004Y-69615004D02*
X158710004Y-69420000D01*
X158715000Y-69985000D02*
X158715000Y-69825004D01*
X158760000Y-70030000D02*
X158715000Y-69985000D01*
X160260000Y-117090709D02*
X157840044Y-114670753D01*
X160260000Y-143164992D02*
X160260000Y-117090709D01*
X158740000Y-69390004D02*
X158740000Y-69215000D01*
X158735000Y-69805004D02*
X158735000Y-69640000D01*
X158774996Y-144649996D02*
X160260000Y-143164992D01*
X157840044Y-114670753D02*
X157840044Y-71099956D01*
X157840044Y-71099956D02*
X158760000Y-70180000D01*
X158715000Y-69825004D02*
X158735000Y-69805004D01*
X158760000Y-70180000D02*
X158760000Y-70030000D01*
X158735000Y-69640000D02*
X158710004Y-69615004D01*
G04 #@! TO.N,Net-(ECOG1-Pad48)*
X158315000Y-69985000D02*
X158315000Y-69985000D01*
X158315000Y-69825004D02*
X158335000Y-69805004D01*
X158310004Y-69615004D02*
X158310004Y-69420000D01*
X157504996Y-139569996D02*
X158134992Y-138940000D01*
X158365000Y-70312560D02*
X158365000Y-70035000D01*
X158300000Y-68150000D02*
X158274999Y-68124999D01*
X158340000Y-69215000D02*
X158300000Y-69175000D01*
X158310004Y-69420000D02*
X158340000Y-69390004D01*
X158340000Y-69390004D02*
X158340000Y-69215000D01*
X157650066Y-71027493D02*
X158365000Y-70312560D01*
X158315000Y-69985000D02*
X158315000Y-69825004D01*
X158274999Y-68124999D02*
X158250000Y-68100000D01*
X157650066Y-114735421D02*
X157650066Y-71027493D01*
X160079934Y-117165289D02*
X157650066Y-114735421D01*
X160079934Y-137920066D02*
X160079934Y-117165289D01*
X158300000Y-69175000D02*
X158300000Y-68150000D01*
X159060000Y-138940000D02*
X160079934Y-137920066D01*
X158134992Y-138940000D02*
X159060000Y-138940000D01*
X158335000Y-69805004D02*
X158335000Y-69640000D01*
X158335000Y-69640000D02*
X158310004Y-69615004D01*
X158365000Y-70035000D02*
X158315000Y-69985000D01*
G04 #@! TO.N,Net-(ECOG1-Pad42)*
X157900000Y-68360000D02*
X157900000Y-69175000D01*
X157915000Y-69985000D02*
X157965000Y-70035000D01*
X157965000Y-70035000D02*
X157965000Y-70185006D01*
X157965000Y-70185006D02*
X157940006Y-70210000D01*
X157940006Y-70210000D02*
X157940006Y-70469996D01*
X157940006Y-70469996D02*
X157940006Y-70470000D01*
X157940000Y-69390004D02*
X157910004Y-69420000D01*
X157920000Y-69195000D02*
X157940000Y-69215000D01*
X157850000Y-68310000D02*
X157900000Y-68360000D01*
X157850000Y-68100000D02*
X157850000Y-68310000D01*
X157940000Y-69215000D02*
X157940000Y-69300000D01*
X157940000Y-69300000D02*
X157940000Y-69390004D01*
X157915000Y-69825004D02*
X157915000Y-69985000D01*
X157935000Y-69805004D02*
X157915000Y-69825004D01*
X157935000Y-69640000D02*
X157935000Y-69805004D01*
X157910004Y-69615004D02*
X157935000Y-69640000D01*
X157915000Y-69985000D02*
X157915000Y-69985000D01*
X157900000Y-69175000D02*
X157920000Y-69195000D01*
X157910004Y-69615004D02*
X157910004Y-69420000D01*
X157940006Y-70469996D02*
X157940006Y-70482673D01*
X157470000Y-114810001D02*
X159890044Y-117230044D01*
X158960094Y-135130000D02*
X158134992Y-135130000D01*
X159890044Y-117230044D02*
X159890044Y-134200050D01*
X157940006Y-70482673D02*
X157470000Y-70952677D01*
X157470000Y-70952677D02*
X157470000Y-114810001D01*
X158134992Y-135130000D02*
X157954995Y-135309997D01*
X157954995Y-135309997D02*
X157504996Y-135759996D01*
X159890044Y-134200050D02*
X158960094Y-135130000D01*
G04 #@! TO.N,Net-(ECOG1-Pad36)*
X157510004Y-69615004D02*
X157510004Y-69420000D01*
X157500000Y-69175000D02*
X157520000Y-69195000D01*
X157515000Y-69985000D02*
X157515000Y-69985000D01*
X157510004Y-69615004D02*
X157535000Y-69640000D01*
X157535000Y-69640000D02*
X157535000Y-69805004D01*
X157535000Y-69805004D02*
X157515000Y-69825004D01*
X157515000Y-69825004D02*
X157515000Y-69985000D01*
X157540000Y-69300000D02*
X157540000Y-69390004D01*
X157540000Y-69215000D02*
X157540000Y-69300000D01*
X157450000Y-68100000D02*
X157450000Y-68310000D01*
X157450000Y-68310000D02*
X157500000Y-68360000D01*
X157520000Y-69195000D02*
X157540000Y-69215000D01*
X157540000Y-69390004D02*
X157510004Y-69420000D01*
X157540006Y-70210000D02*
X157540006Y-70469996D01*
X157540006Y-70469996D02*
X157540006Y-70470000D01*
X157565000Y-70185006D02*
X157540006Y-70210000D01*
X157565000Y-70035000D02*
X157565000Y-70185006D01*
X157515000Y-69985000D02*
X157565000Y-70035000D01*
X157500000Y-68360000D02*
X157500000Y-69175000D01*
X157540006Y-70590008D02*
X157540006Y-70469996D01*
X157289996Y-70840018D02*
X157540006Y-70590008D01*
X157289996Y-114959996D02*
X157289996Y-70840018D01*
X159709996Y-117379996D02*
X157289996Y-114959996D01*
X158774996Y-124329996D02*
X159709996Y-123394996D01*
X159709996Y-123394996D02*
X159709996Y-117379996D01*
G04 #@! TO.N,Net-(ECOG1-Pad30)*
X157115000Y-69985000D02*
X157115000Y-69985000D01*
X159510006Y-117480006D02*
X159510006Y-119784986D01*
X157050000Y-68100000D02*
X157050000Y-68310000D01*
X157140000Y-69390004D02*
X157110004Y-69420000D01*
X157140000Y-69215000D02*
X157140000Y-69390004D01*
X159510006Y-119784986D02*
X158774996Y-120519996D01*
X157100000Y-69175000D02*
X157140000Y-69215000D01*
X157050000Y-68310000D02*
X157100000Y-68360000D01*
X157100000Y-68360000D02*
X157100000Y-69175000D01*
X157165000Y-70185006D02*
X157109996Y-70240010D01*
X157115000Y-69985000D02*
X157165000Y-70035000D01*
X157110004Y-69420000D02*
X157110004Y-69615004D01*
X157110004Y-69615004D02*
X157135000Y-69640000D01*
X157135000Y-69640000D02*
X157135000Y-69805004D01*
X157135000Y-69805004D02*
X157115000Y-69825004D01*
X157115000Y-69825004D02*
X157115000Y-69985000D01*
X157165000Y-70035000D02*
X157165000Y-70185006D01*
X157109996Y-115079996D02*
X159510006Y-117480006D01*
X157109996Y-70240010D02*
X157109996Y-115079996D01*
G04 #@! TO.N,Net-(ECOG1-Pad24)*
X156700000Y-68360000D02*
X156700000Y-69175000D01*
X156715000Y-69985000D02*
X156765000Y-70035000D01*
X156765000Y-70035000D02*
X156765000Y-70185006D01*
X156765000Y-70185006D02*
X156740006Y-70210000D01*
X156740006Y-70210000D02*
X156740006Y-70469996D01*
X156740006Y-70469996D02*
X156740006Y-70470000D01*
X156740000Y-69390004D02*
X156710004Y-69420000D01*
X156720000Y-69195000D02*
X156740000Y-69215000D01*
X156650000Y-68310000D02*
X156700000Y-68360000D01*
X156650000Y-68100000D02*
X156650000Y-68310000D01*
X156740000Y-69215000D02*
X156740000Y-69300000D01*
X156740000Y-69300000D02*
X156740000Y-69390004D01*
X156715000Y-69825004D02*
X156715000Y-69985000D01*
X156735000Y-69805004D02*
X156715000Y-69825004D01*
X156735000Y-69640000D02*
X156735000Y-69805004D01*
X156710004Y-69615004D02*
X156735000Y-69640000D01*
X156715000Y-69985000D02*
X156715000Y-69985000D01*
X156700000Y-69175000D02*
X156720000Y-69195000D01*
X156710004Y-69615004D02*
X156710004Y-69420000D01*
X156740006Y-117474986D02*
X156234996Y-117979996D01*
X156740006Y-70469996D02*
X156740006Y-117474986D01*
G04 #@! TO.N,Net-(ECOG1-Pad18)*
X156310004Y-69615004D02*
X156310004Y-69420000D01*
X156300000Y-69175000D02*
X156320000Y-69195000D01*
X156315000Y-69985000D02*
X156315000Y-69985000D01*
X156310004Y-69615004D02*
X156335000Y-69640000D01*
X156335000Y-69640000D02*
X156335000Y-69805004D01*
X156335000Y-69805004D02*
X156315000Y-69825004D01*
X156315000Y-69825004D02*
X156315000Y-69985000D01*
X156340000Y-69300000D02*
X156340000Y-69390004D01*
X156340000Y-69215000D02*
X156340000Y-69300000D01*
X156250000Y-68100000D02*
X156250000Y-68310000D01*
X156250000Y-68310000D02*
X156300000Y-68360000D01*
X156320000Y-69195000D02*
X156340000Y-69215000D01*
X156340000Y-69390004D02*
X156310004Y-69420000D01*
X156340006Y-70210000D02*
X156340006Y-70469996D01*
X156340006Y-70469996D02*
X156340006Y-70470000D01*
X156365000Y-70185006D02*
X156340006Y-70210000D01*
X156365000Y-70035000D02*
X156365000Y-70185006D01*
X156315000Y-69985000D02*
X156365000Y-70035000D01*
X156300000Y-68360000D02*
X156300000Y-69175000D01*
X155594996Y-121149996D02*
X156234996Y-121789996D01*
X154769894Y-121149996D02*
X155594996Y-121149996D01*
X154229990Y-117430010D02*
X154229990Y-120610092D01*
X156340006Y-70480008D02*
X156559994Y-70699996D01*
X156340006Y-70469996D02*
X156340006Y-70480008D01*
X154260000Y-117400000D02*
X154229990Y-117430010D01*
X156559994Y-70699996D02*
X156559994Y-70759996D01*
X156559994Y-70759996D02*
X156559971Y-70760019D01*
X156559971Y-70760019D02*
X156559971Y-115100029D01*
X154229990Y-120610092D02*
X154769894Y-121149996D01*
X156559971Y-115100029D02*
X154260000Y-117400000D01*
G04 #@! TO.N,Net-(ECOG1-Pad12)*
X155915000Y-69985000D02*
X155915000Y-69985000D01*
X155850000Y-68310000D02*
X155900000Y-68360000D01*
X155850000Y-68100000D02*
X155850000Y-68310000D01*
X155900000Y-68360000D02*
X155900000Y-69175000D01*
X155900000Y-69175000D02*
X155940000Y-69215000D01*
X155940000Y-69215000D02*
X155940000Y-69390004D01*
X155940000Y-69390004D02*
X155910004Y-69420000D01*
X154040000Y-124675000D02*
X154964996Y-125599996D01*
X154040000Y-117350000D02*
X154040000Y-124675000D01*
X156360000Y-115030000D02*
X154040000Y-117350000D01*
X155960012Y-70030002D02*
X155960012Y-70407572D01*
X156360000Y-70807560D02*
X156360000Y-115030000D01*
X155910012Y-69417430D02*
X155910012Y-69627572D01*
X155935009Y-69392433D02*
X155910012Y-69417430D01*
X155910012Y-69627572D02*
X155930010Y-69647570D01*
X155910012Y-69980002D02*
X155960012Y-70030002D01*
X155930010Y-69647570D02*
X155930009Y-69787433D01*
X155930009Y-69787433D02*
X155910012Y-69807430D01*
X155960012Y-70407572D02*
X156360000Y-70807560D01*
X155910012Y-69807430D02*
X155910012Y-69980002D01*
G04 #@! TO.N,Net-(ECOG1-Pad6)*
X155515000Y-69985000D02*
X155515000Y-69985000D01*
X155565000Y-70295000D02*
X155565000Y-70035000D01*
X156180000Y-70910000D02*
X155565000Y-70295000D01*
X153850000Y-134645000D02*
X153850000Y-117270000D01*
X156180000Y-114940000D02*
X156180000Y-70910000D01*
X153850000Y-117270000D02*
X156180000Y-114940000D01*
X155535000Y-69640000D02*
X155510004Y-69615004D01*
X154964996Y-135759996D02*
X153850000Y-134645000D01*
X155565000Y-70035000D02*
X155515000Y-69985000D01*
X155510004Y-69615004D02*
X155510004Y-69420000D01*
X155515000Y-69985000D02*
X155515000Y-69825004D01*
X155515000Y-69825004D02*
X155535000Y-69805004D01*
X155535000Y-69805004D02*
X155535000Y-69640000D01*
X155510004Y-69420000D02*
X155540000Y-69390004D01*
X155450000Y-68310000D02*
X155450000Y-68100000D01*
X155540000Y-69390004D02*
X155540000Y-69215000D01*
X155500000Y-68360000D02*
X155450000Y-68310000D01*
X155500000Y-69175000D02*
X155500000Y-68360000D01*
X155540000Y-69215000D02*
X155500000Y-69175000D01*
G04 #@! TO.N,Net-(ECOG1-Pad0)*
X155115000Y-69985000D02*
X155115000Y-69985000D01*
X155050000Y-68310000D02*
X155050000Y-68100000D01*
X155165000Y-70195000D02*
X155165000Y-70035000D01*
X156000000Y-71030000D02*
X155165000Y-70195000D01*
X156000000Y-114790000D02*
X156000000Y-71030000D01*
X155135000Y-69805004D02*
X155135000Y-69640000D01*
X153670000Y-117120000D02*
X156000000Y-114790000D01*
X155100000Y-68360000D02*
X155050000Y-68310000D01*
X155115000Y-69825004D02*
X155135000Y-69805004D01*
X155100000Y-69175000D02*
X155100000Y-68360000D01*
X154964996Y-139569996D02*
X153670000Y-138275000D01*
X153670000Y-138275000D02*
X153670000Y-117120000D01*
X155165000Y-70035000D02*
X155115000Y-69985000D01*
X155115000Y-69985000D02*
X155115000Y-69825004D01*
X155135000Y-69640000D02*
X155110004Y-69615004D01*
X155110004Y-69615004D02*
X155110004Y-69420000D01*
X155140000Y-69215000D02*
X155100000Y-69175000D01*
X155110004Y-69420000D02*
X155140000Y-69390004D01*
X155140000Y-69390004D02*
X155140000Y-69215000D01*
G04 #@! TO.N,Net-(ECOG1-Pad1)*
X154989996Y-69820000D02*
X154989996Y-70015004D01*
X154969998Y-69800002D02*
X154989996Y-69820000D01*
X154989998Y-68765002D02*
X155000000Y-68755000D01*
X154989998Y-69290002D02*
X154989998Y-69590002D01*
X155050000Y-68500000D02*
X155050000Y-68705000D01*
X155050000Y-68705000D02*
X155000000Y-68755000D01*
X154989998Y-68920000D02*
X154989998Y-69290002D01*
X154969998Y-69610002D02*
X154969998Y-69700000D01*
X154969998Y-69700000D02*
X154969998Y-69784998D01*
X154989998Y-69590002D02*
X154969998Y-69610002D01*
X154989998Y-68920000D02*
X154989998Y-68765002D01*
X154969998Y-69784998D02*
X154969998Y-69800002D01*
X154965000Y-70040000D02*
X154965000Y-70189996D01*
X154965000Y-70189996D02*
X154965000Y-70190004D01*
X154989996Y-70015004D02*
X154965000Y-70040000D01*
X153519990Y-143204990D02*
X154964996Y-144649996D01*
X153519990Y-117017570D02*
X153519990Y-143204990D01*
X155850000Y-114687560D02*
X153519990Y-117017570D01*
X155850000Y-71130000D02*
X155850000Y-114687560D01*
X154965000Y-70189996D02*
X154965000Y-70245000D01*
X154965000Y-70245000D02*
X155850000Y-71130000D01*
G04 #@! TO.N,Net-(ECOG1-Pad2)*
X155080002Y-69795000D02*
X155080002Y-69992572D01*
X155080002Y-69640002D02*
X155100000Y-69660000D01*
X155100000Y-69660000D02*
X155100000Y-69775002D01*
X155100000Y-69775002D02*
X155080002Y-69795000D01*
X155050000Y-68900000D02*
X155050000Y-69170000D01*
X155080002Y-69405000D02*
X155080002Y-69630000D01*
X155105000Y-69380002D02*
X155080002Y-69405000D01*
X155105000Y-69225000D02*
X155105000Y-69380002D01*
X155050000Y-69170000D02*
X155105000Y-69225000D01*
X155080002Y-69630000D02*
X155080002Y-69640002D01*
X155121285Y-70033715D02*
X155121285Y-70033855D01*
X155121145Y-70033715D02*
X155121285Y-70033715D01*
X155080002Y-69992572D02*
X155121145Y-70033715D01*
X155130002Y-70160002D02*
X155130002Y-70159996D01*
X155130002Y-70159996D02*
X155130002Y-70042572D01*
X155130002Y-70042572D02*
X155121285Y-70033855D01*
X155121285Y-70033855D02*
X155121215Y-70033785D01*
X155605000Y-140210000D02*
X156234996Y-140839996D01*
X155130002Y-70159996D02*
X155130002Y-70210002D01*
X155130002Y-70210002D02*
X155970000Y-71050000D01*
X155970000Y-71050000D02*
X155970000Y-114770000D01*
X155970000Y-114770000D02*
X153640000Y-117100000D01*
X154600000Y-140210000D02*
X155605000Y-140210000D01*
X153640000Y-117100000D02*
X153640000Y-139250000D01*
X153640000Y-139250000D02*
X154600000Y-140210000D01*
G04 #@! TO.N,Net-(ECOG1-Pad3)*
X155050000Y-69585000D02*
X155050000Y-69300000D01*
X155000000Y-69635000D02*
X155050000Y-69585000D01*
X154964996Y-143379996D02*
X153550000Y-141965000D01*
X153550000Y-117030000D02*
X155880000Y-114700000D01*
X155000000Y-69765002D02*
X155000000Y-69635000D01*
X155019998Y-70035002D02*
X155019998Y-69785000D01*
X155000000Y-70055000D02*
X155019998Y-70035002D01*
X153550000Y-141965000D02*
X153550000Y-117030000D01*
X155880000Y-114700000D02*
X155880000Y-71110000D01*
X155880000Y-71110000D02*
X155000000Y-70230000D01*
X155019998Y-69785000D02*
X155000000Y-69765002D01*
X155000000Y-70230000D02*
X155000000Y-70055000D01*
G04 #@! TO.N,Net-(ECOG1-Pad4)*
X155050000Y-69700000D02*
X155050000Y-70010000D01*
X155100000Y-70060000D02*
X155100000Y-70159996D01*
X155100000Y-70159996D02*
X155100000Y-70160002D01*
X155050000Y-70010000D02*
X155100000Y-70060000D01*
X155100000Y-70230000D02*
X155100000Y-70159996D01*
X155940000Y-71070000D02*
X155100000Y-70230000D01*
X155940000Y-114740000D02*
X155940000Y-71070000D01*
X153610000Y-117070000D02*
X155940000Y-114740000D01*
X154964996Y-140839996D02*
X153610000Y-139485000D01*
X153610000Y-139485000D02*
X153610000Y-117070000D01*
G04 #@! TO.N,Net-(ECOG1-Pad5)*
X153580000Y-140725000D02*
X154964996Y-142109996D01*
X153580000Y-117050000D02*
X153580000Y-140725000D01*
X155910000Y-114720000D02*
X153580000Y-117050000D01*
X155910000Y-71090000D02*
X155910000Y-114720000D01*
X155050000Y-70100000D02*
X155050000Y-70230000D01*
X155050000Y-70230000D02*
X155910000Y-71090000D01*
G04 #@! TO.N,Net-(ECOG1-Pad7)*
X155389996Y-70015004D02*
X155365000Y-70040000D01*
X155365000Y-70040000D02*
X155365000Y-70189996D01*
X155365000Y-70189996D02*
X155365000Y-70190004D01*
X155369998Y-69784998D02*
X155369998Y-69800002D01*
X155389998Y-68920000D02*
X155389998Y-68765002D01*
X155389998Y-69590002D02*
X155369998Y-69610002D01*
X155369998Y-69700000D02*
X155369998Y-69784998D01*
X155369998Y-69610002D02*
X155369998Y-69700000D01*
X155389998Y-68920000D02*
X155389998Y-69290002D01*
X155450000Y-68705000D02*
X155400000Y-68755000D01*
X155450000Y-68500000D02*
X155450000Y-68705000D01*
X155389998Y-69290002D02*
X155389998Y-69590002D01*
X155389998Y-68765002D02*
X155400000Y-68755000D01*
X155369998Y-69800002D02*
X155389996Y-69820000D01*
X155389996Y-69820000D02*
X155389996Y-70015004D01*
X155784997Y-139119997D02*
X156234996Y-139569996D01*
X155595000Y-138930000D02*
X155784997Y-139119997D01*
X154650000Y-138930000D02*
X155595000Y-138930000D01*
X155365000Y-70345000D02*
X156030000Y-71010000D01*
X156030000Y-114820000D02*
X153700000Y-117150000D01*
X155365000Y-70189996D02*
X155365000Y-70345000D01*
X153700000Y-117150000D02*
X153700000Y-137980000D01*
X156030000Y-71010000D02*
X156030000Y-114820000D01*
X153700000Y-137980000D02*
X154650000Y-138930000D01*
G04 #@! TO.N,Net-(ECOG1-Pad8)*
X155521285Y-70033855D02*
X155521215Y-70033785D01*
X155530002Y-70042572D02*
X155521285Y-70033855D01*
X155530002Y-70160002D02*
X155530002Y-70159996D01*
X155530002Y-70159996D02*
X155530002Y-70042572D01*
X155480002Y-69992572D02*
X155521145Y-70033715D01*
X155521145Y-70033715D02*
X155521285Y-70033715D01*
X155521285Y-70033715D02*
X155521285Y-70033855D01*
X155480002Y-69630000D02*
X155480002Y-69640002D01*
X155450000Y-69170000D02*
X155505000Y-69225000D01*
X155505000Y-69225000D02*
X155505000Y-69380002D01*
X155505000Y-69380002D02*
X155480002Y-69405000D01*
X155480002Y-69405000D02*
X155480002Y-69630000D01*
X155450000Y-68900000D02*
X155450000Y-69170000D01*
X155500000Y-69775002D02*
X155480002Y-69795000D01*
X155500000Y-69660000D02*
X155500000Y-69775002D01*
X155480002Y-69640002D02*
X155500000Y-69660000D01*
X155480002Y-69795000D02*
X155480002Y-69992572D01*
X155784997Y-136579997D02*
X156234996Y-137029996D01*
X155625000Y-136420000D02*
X155784997Y-136579997D01*
X155530002Y-70310002D02*
X156150000Y-70930000D01*
X154630000Y-136420000D02*
X155625000Y-136420000D01*
X155530002Y-70159996D02*
X155530002Y-70310002D01*
X156150000Y-70930000D02*
X156150000Y-114920000D01*
X156150000Y-114920000D02*
X153820000Y-117250000D01*
X153820000Y-117250000D02*
X153820000Y-135610000D01*
X153820000Y-135610000D02*
X154630000Y-136420000D01*
G04 #@! TO.N,Net-(ECOG1-Pad9)*
X155450000Y-69585000D02*
X155450000Y-69300000D01*
X155400000Y-69635000D02*
X155450000Y-69585000D01*
X155419998Y-69785000D02*
X155400000Y-69765002D01*
X155419998Y-70035002D02*
X155419998Y-69785000D01*
X155400000Y-70055000D02*
X155419998Y-70035002D01*
X155400000Y-70330000D02*
X155400000Y-70055000D01*
X155400000Y-69765002D02*
X155400000Y-69635000D01*
X154939996Y-138299996D02*
X153730000Y-137090000D01*
X154964996Y-138299996D02*
X154939996Y-138299996D01*
X153730000Y-137090000D02*
X153730000Y-117180000D01*
X153730000Y-117180000D02*
X156060000Y-114850000D01*
X156060000Y-114850000D02*
X156060000Y-70990000D01*
X156060000Y-70990000D02*
X155400000Y-70330000D01*
G04 #@! TO.N,Net-(ECOG1-Pad10)*
X155450000Y-70010000D02*
X155500000Y-70060000D01*
X155500000Y-70060000D02*
X155500000Y-70159996D01*
X155500000Y-70159996D02*
X155500000Y-70160002D01*
X155450000Y-69700000D02*
X155450000Y-70010000D01*
X155500000Y-70330000D02*
X155500000Y-70159996D01*
X156120000Y-70950000D02*
X155500000Y-70330000D01*
X156120000Y-114900000D02*
X156120000Y-70950000D01*
X153790000Y-117230000D02*
X156120000Y-114900000D01*
X154964996Y-137029996D02*
X153790000Y-135855000D01*
X153790000Y-135855000D02*
X153790000Y-117230000D01*
G04 #@! TO.N,Net-(ECOG1-Pad11)*
X155784997Y-137849997D02*
X156234996Y-138299996D01*
X155615000Y-137680000D02*
X155784997Y-137849997D01*
X154730000Y-137680000D02*
X155615000Y-137680000D01*
X155450000Y-70100000D02*
X155450000Y-70330000D01*
X156090000Y-70970000D02*
X156090000Y-114870000D01*
X155450000Y-70330000D02*
X156090000Y-70970000D01*
X156090000Y-114870000D02*
X153760000Y-117200000D01*
X153760000Y-117200000D02*
X153760000Y-136710000D01*
X153760000Y-136710000D02*
X154730000Y-137680000D01*
G04 #@! TO.N,Net-(ECOG1-Pad13)*
X155789996Y-70015004D02*
X155765000Y-70040000D01*
X155765000Y-70040000D02*
X155765000Y-70189996D01*
X155765000Y-70189996D02*
X155765000Y-70190004D01*
X155769998Y-69784998D02*
X155769998Y-69800002D01*
X155789998Y-68920000D02*
X155789998Y-68765002D01*
X155789998Y-69590002D02*
X155769998Y-69610002D01*
X155769998Y-69700000D02*
X155769998Y-69784998D01*
X155769998Y-69610002D02*
X155769998Y-69700000D01*
X155789998Y-68920000D02*
X155789998Y-69290002D01*
X155850000Y-68705000D02*
X155800000Y-68755000D01*
X155850000Y-68500000D02*
X155850000Y-68705000D01*
X155789998Y-69290002D02*
X155789998Y-69590002D01*
X155789998Y-68765002D02*
X155800000Y-68755000D01*
X155769998Y-69800002D02*
X155789996Y-69820000D01*
X155789996Y-69820000D02*
X155789996Y-70015004D01*
X155605000Y-135130000D02*
X156234996Y-135759996D01*
X154470000Y-135130000D02*
X155605000Y-135130000D01*
X155765000Y-70189996D02*
X155765000Y-70452560D01*
X156210000Y-70897560D02*
X156210000Y-114952440D01*
X156210000Y-114952440D02*
X153889972Y-117272468D01*
X155765000Y-70452560D02*
X156210000Y-70897560D01*
X153889972Y-117272468D02*
X153889972Y-134549972D01*
X153889972Y-134549972D02*
X154470000Y-135130000D01*
G04 #@! TO.N,Net-(ECOG1-Pad14)*
X155930002Y-70420002D02*
X156309996Y-70799996D01*
X155921285Y-70033855D02*
X155921215Y-70033785D01*
X155880002Y-69992572D02*
X155921145Y-70033715D01*
X155921145Y-70033715D02*
X155921285Y-70033715D01*
X155921285Y-70033715D02*
X155921285Y-70033855D01*
X155880002Y-69630000D02*
X155880002Y-69640002D01*
X155850000Y-69170000D02*
X155905000Y-69225000D01*
X155905000Y-69225000D02*
X155905000Y-69380002D01*
X155905000Y-69380002D02*
X155880002Y-69405000D01*
X155880002Y-69405000D02*
X155880002Y-69630000D01*
X155850000Y-68900000D02*
X155850000Y-69170000D01*
X155900000Y-69775002D02*
X155880002Y-69795000D01*
X155900000Y-69660000D02*
X155900000Y-69775002D01*
X155880002Y-69640002D02*
X155900000Y-69660000D01*
X155880002Y-69795000D02*
X155880002Y-69992572D01*
X155930002Y-70420002D02*
X155930002Y-70042572D01*
X155930002Y-70042572D02*
X155921285Y-70033855D01*
X156330000Y-70820000D02*
X155930002Y-70420002D01*
X156330000Y-115010000D02*
X156330000Y-70820000D01*
X154010000Y-117330000D02*
X156330000Y-115010000D01*
X154964996Y-126869996D02*
X154010000Y-125915000D01*
X154010000Y-125915000D02*
X154010000Y-117330000D01*
G04 #@! TO.N,Net-(ECOG1-Pad15)*
X155850000Y-69335355D02*
X155850000Y-69300000D01*
X155800000Y-69635000D02*
X155850000Y-69585000D01*
X155800000Y-69765002D02*
X155800000Y-69635000D01*
X155800000Y-70055000D02*
X155819998Y-70035002D01*
X155850000Y-69585000D02*
X155850000Y-69335355D01*
X155800000Y-70440000D02*
X155800000Y-70055000D01*
X154964996Y-134024996D02*
X153919983Y-132979983D01*
X154964996Y-134489996D02*
X154964996Y-134024996D01*
X153919983Y-132979983D02*
X153919983Y-117284897D01*
X155819998Y-69785000D02*
X155800000Y-69765002D01*
X153919983Y-117284897D02*
X156240000Y-114964880D01*
X155819998Y-70035002D02*
X155819998Y-69785000D01*
X156240000Y-114964880D02*
X156240000Y-70880000D01*
X156240000Y-70880000D02*
X155800000Y-70440000D01*
G04 #@! TO.N,Net-(ECOG1-Pad16)*
X155850000Y-70010000D02*
X155900000Y-70060000D01*
X155900000Y-70060000D02*
X155900000Y-70159996D01*
X155900000Y-70159996D02*
X155900000Y-70160002D01*
X155850000Y-69700000D02*
X155850000Y-70010000D01*
X153980000Y-117310000D02*
X153980000Y-127155000D01*
X153980000Y-127155000D02*
X154964996Y-128139996D01*
X155900000Y-70379996D02*
X155899996Y-70380000D01*
X155900000Y-70159996D02*
X155900000Y-70379996D01*
X155899996Y-70439996D02*
X156300000Y-70840000D01*
X156300000Y-70840000D02*
X156300000Y-114990000D01*
X155899996Y-70380000D02*
X155899996Y-70439996D01*
X156300000Y-114990000D02*
X153980000Y-117310000D01*
G04 #@! TO.N,Net-(ECOG1-Pad17)*
X155784997Y-134039997D02*
X156234996Y-134489996D01*
X155850000Y-70440000D02*
X156270000Y-70860000D01*
X155850000Y-70100000D02*
X155850000Y-70440000D01*
X156270000Y-70860000D02*
X156270000Y-114977320D01*
X156270000Y-114977320D02*
X153949994Y-117297326D01*
X153949994Y-117297326D02*
X153949994Y-132204994D01*
X153949994Y-132204994D02*
X155784997Y-134039997D01*
G04 #@! TO.N,Net-(ECOG1-Pad19)*
X154070000Y-123435000D02*
X154514997Y-123879997D01*
X154070000Y-117362441D02*
X154070000Y-123435000D01*
X154514997Y-123879997D02*
X154964996Y-124329996D01*
X156390000Y-115042441D02*
X154070000Y-117362441D01*
X156390000Y-70780000D02*
X156390000Y-115042441D01*
X156189996Y-70215000D02*
X156189996Y-70579996D01*
X156165000Y-70040000D02*
X156165000Y-70190004D01*
X156190000Y-68560000D02*
X156190000Y-69590000D01*
X156189996Y-70579996D02*
X156390000Y-70780000D01*
X156189996Y-70015004D02*
X156165000Y-70040000D01*
X156190000Y-69590000D02*
X156169998Y-69610002D01*
X156169998Y-69610002D02*
X156169998Y-69800002D01*
X156250000Y-68500000D02*
X156190000Y-68560000D01*
X156169998Y-69800002D02*
X156189996Y-69820000D01*
X156165000Y-70190004D02*
X156189996Y-70215000D01*
X156189996Y-69820000D02*
X156189996Y-70015004D01*
G04 #@! TO.N,Net-(ECOG1-Pad20)*
X156280002Y-69795000D02*
X156280002Y-69992572D01*
X156280002Y-69640002D02*
X156300000Y-69660000D01*
X156300000Y-69660000D02*
X156300000Y-69775002D01*
X156300000Y-69775002D02*
X156280002Y-69795000D01*
X156250000Y-68900000D02*
X156250000Y-69170000D01*
X156280002Y-69405000D02*
X156280002Y-69630000D01*
X156305000Y-69380002D02*
X156280002Y-69405000D01*
X156305000Y-69225000D02*
X156305000Y-69380002D01*
X156250000Y-69170000D02*
X156305000Y-69225000D01*
X156280002Y-69630000D02*
X156280002Y-69640002D01*
X156321285Y-70033715D02*
X156321285Y-70033855D01*
X156321145Y-70033715D02*
X156321285Y-70033715D01*
X156280002Y-69992572D02*
X156321145Y-70033715D01*
X156330002Y-70160002D02*
X156330002Y-70042572D01*
X156330002Y-70160002D02*
X156330002Y-70175002D01*
X156330002Y-70175002D02*
X156310004Y-70195000D01*
X156310004Y-70195000D02*
X156310004Y-70469996D01*
X156310004Y-70469996D02*
X156310008Y-70469996D01*
X156330002Y-70042572D02*
X156321285Y-70033855D01*
X156321285Y-70033855D02*
X156321215Y-70033785D01*
X154190000Y-121015000D02*
X154964996Y-121789996D01*
X154190000Y-117420000D02*
X154190000Y-121015000D01*
X156520000Y-115090000D02*
X154190000Y-117420000D01*
X156520000Y-70710000D02*
X156520000Y-115090000D01*
X156310004Y-70469996D02*
X156310004Y-70500004D01*
X156310004Y-70500004D02*
X156520000Y-70710000D01*
G04 #@! TO.N,Net-(ECOG1-Pad21)*
X156428779Y-70889996D02*
X156428779Y-70891213D01*
X156219998Y-69860000D02*
X156219998Y-70035002D01*
X156250000Y-69585000D02*
X156200000Y-69635000D01*
X156200000Y-69635000D02*
X156200000Y-69765002D01*
X156200000Y-69765002D02*
X156219998Y-69785000D01*
X156219998Y-69785000D02*
X156219998Y-69860000D01*
X156250000Y-69300000D02*
X156250000Y-69585000D01*
X156219998Y-70195000D02*
X156219998Y-70469996D01*
X156219998Y-70469996D02*
X156219998Y-70470000D01*
X156200000Y-70175002D02*
X156219998Y-70195000D01*
X156200000Y-70055000D02*
X156200000Y-70175002D01*
X156219998Y-70035002D02*
X156200000Y-70055000D01*
X155784997Y-123879997D02*
X156234996Y-124329996D01*
X156428779Y-115046101D02*
X154100000Y-117374880D01*
X156428779Y-70889996D02*
X156428779Y-115046101D01*
X154100000Y-117374880D02*
X154100000Y-123020102D01*
X154100000Y-123020102D02*
X154789894Y-123709996D01*
X154789894Y-123709996D02*
X155614996Y-123709996D01*
X155614996Y-123709996D02*
X155784997Y-123879997D01*
X156428779Y-70768779D02*
X156428779Y-70889996D01*
X156219998Y-70469996D02*
X156219998Y-70559998D01*
X156219998Y-70559998D02*
X156428779Y-70768779D01*
G04 #@! TO.N,Net-(ECOG1-Pad22)*
X156250000Y-69700000D02*
X156250000Y-70010000D01*
X156280002Y-70180000D02*
X156280002Y-70469996D01*
X156280002Y-70469996D02*
X156280002Y-70470000D01*
X156300000Y-70160002D02*
X156280002Y-70180000D01*
X156300000Y-70060000D02*
X156300000Y-70160002D01*
X156250000Y-70010000D02*
X156300000Y-70060000D01*
X154659996Y-122409996D02*
X155584996Y-122409996D01*
X156280002Y-70469996D02*
X156280002Y-70520002D01*
X156280002Y-70520002D02*
X156489996Y-70729996D01*
X156489996Y-70729996D02*
X156489996Y-115070004D01*
X156489996Y-115070004D02*
X154160000Y-117400000D01*
X154160000Y-117400000D02*
X154160000Y-121910000D01*
X155584996Y-122409996D02*
X156234996Y-123059996D01*
X154160000Y-121910000D02*
X154659996Y-122409996D01*
G04 #@! TO.N,Net-(ECOG1-Pad23)*
X156250000Y-70100000D02*
X156250000Y-70469996D01*
X156250000Y-70469996D02*
X156250000Y-70470000D01*
X154514997Y-122609997D02*
X154964996Y-123059996D01*
X156250000Y-70540000D02*
X156458790Y-70748790D01*
X156250000Y-70469996D02*
X156250000Y-70540000D01*
X156458790Y-70748790D02*
X156458790Y-115058530D01*
X156458790Y-115058530D02*
X154130000Y-117387320D01*
X154130000Y-117387320D02*
X154130000Y-122225000D01*
X154130000Y-122225000D02*
X154514997Y-122609997D01*
G04 #@! TO.N,Net-(ECOG1-Pad25)*
X156589996Y-70015004D02*
X156565000Y-70040000D01*
X156565000Y-70040000D02*
X156565000Y-70190004D01*
X156565000Y-70190004D02*
X156589996Y-70215000D01*
X156589996Y-70215000D02*
X156589996Y-70469996D01*
X156589996Y-70469996D02*
X156589996Y-70470000D01*
X156569998Y-69784998D02*
X156569998Y-69800002D01*
X156589998Y-68920000D02*
X156589998Y-68765002D01*
X156589998Y-69590002D02*
X156569998Y-69610002D01*
X156569998Y-69700000D02*
X156569998Y-69784998D01*
X156569998Y-69610002D02*
X156569998Y-69700000D01*
X156589998Y-68920000D02*
X156589998Y-69290002D01*
X156650000Y-68705000D02*
X156600000Y-68755000D01*
X156650000Y-68500000D02*
X156650000Y-68705000D01*
X156589998Y-69290002D02*
X156589998Y-69590002D01*
X156589998Y-68765002D02*
X156600000Y-68755000D01*
X156569998Y-69800002D02*
X156589996Y-69820000D01*
X156589996Y-69820000D02*
X156589996Y-70015004D01*
X156589996Y-74659996D02*
X156589996Y-80949996D01*
X156589996Y-80949996D02*
X156589996Y-81219996D01*
X156589996Y-81219996D02*
X156589996Y-81549996D01*
X156589996Y-70899996D02*
X156589996Y-74659996D01*
X156589996Y-70469996D02*
X156589996Y-70899996D01*
X156589996Y-81549996D02*
X156589987Y-81589996D01*
X156589987Y-81589996D02*
X156589996Y-81589996D01*
X156589986Y-81600006D02*
X156589987Y-81589996D01*
X156589981Y-81600011D02*
X156589986Y-81600006D01*
X156589981Y-115120011D02*
X156589981Y-81600011D01*
X154260000Y-117449992D02*
X156589981Y-115120011D01*
X154964996Y-120519996D02*
X154260000Y-119815000D01*
X154260000Y-119815000D02*
X154260000Y-117449992D01*
G04 #@! TO.N,Net-(ECOG1-Pad26)*
X156721285Y-70033855D02*
X156721215Y-70033785D01*
X156730002Y-70042572D02*
X156721285Y-70033855D01*
X156710004Y-70195000D02*
X156710004Y-70469996D01*
X156710004Y-70469996D02*
X156710004Y-70470000D01*
X156730002Y-70175002D02*
X156710004Y-70195000D01*
X156730002Y-70160002D02*
X156730002Y-70175002D01*
X156730002Y-70160002D02*
X156730002Y-70042572D01*
X156680002Y-69992572D02*
X156721145Y-70033715D01*
X156721145Y-70033715D02*
X156721285Y-70033715D01*
X156721285Y-70033715D02*
X156721285Y-70033855D01*
X156680002Y-69630000D02*
X156680002Y-69640002D01*
X156650000Y-69170000D02*
X156705000Y-69225000D01*
X156705000Y-69225000D02*
X156705000Y-69380002D01*
X156705000Y-69380002D02*
X156680002Y-69405000D01*
X156680002Y-69405000D02*
X156680002Y-69630000D01*
X156650000Y-68900000D02*
X156650000Y-69170000D01*
X156700000Y-69775002D02*
X156680002Y-69795000D01*
X156700000Y-69660000D02*
X156700000Y-69775002D01*
X156680002Y-69640002D02*
X156700000Y-69660000D01*
X156680002Y-69795000D02*
X156680002Y-69992572D01*
X154964996Y-117974996D02*
X154964996Y-117979996D01*
X156710004Y-70469996D02*
X156710004Y-116229988D01*
X156710004Y-116229988D02*
X154964996Y-117974996D01*
G04 #@! TO.N,Net-(ECOG1-Pad27)*
X156619998Y-70035002D02*
X156600000Y-70055000D01*
X156600000Y-70055000D02*
X156600000Y-70175002D01*
X156600000Y-70175002D02*
X156619998Y-70195000D01*
X156619998Y-70195000D02*
X156619998Y-70469996D01*
X156650000Y-69300000D02*
X156650000Y-69585000D01*
X156619998Y-69785000D02*
X156619998Y-69860000D01*
X156600000Y-69765002D02*
X156619998Y-69785000D01*
X156600000Y-69635000D02*
X156600000Y-69765002D01*
X156650000Y-69585000D02*
X156600000Y-69635000D01*
X156619998Y-69860000D02*
X156619998Y-70035002D01*
X156619998Y-70469996D02*
X156619990Y-114980002D01*
X156619990Y-114980002D02*
X156619998Y-70470000D01*
X156619990Y-115140002D02*
X156619990Y-114980002D01*
X154290000Y-117469992D02*
X156619990Y-115140002D01*
X154290000Y-119400102D02*
X154290000Y-117469992D01*
X154852393Y-119962495D02*
X154290000Y-119400102D01*
X156234996Y-120519996D02*
X155677495Y-119962495D01*
X155677495Y-119962495D02*
X154852393Y-119962495D01*
G04 #@! TO.N,Net-(ECOG1-Pad28)*
X156650000Y-70010000D02*
X156700000Y-70060000D01*
X156700000Y-70060000D02*
X156700000Y-70160002D01*
X156700000Y-70160002D02*
X156680002Y-70180000D01*
X156680002Y-70180000D02*
X156680002Y-70469996D01*
X156680002Y-70469996D02*
X156680002Y-70470000D01*
X156650000Y-69700000D02*
X156650000Y-70010000D01*
X156680002Y-115171488D02*
X154350000Y-117501490D01*
X156680002Y-70469996D02*
X156680002Y-115171488D01*
X154350000Y-117501490D02*
X154350000Y-118458502D01*
X154350000Y-118458502D02*
X154531494Y-118639996D01*
X154531494Y-118639996D02*
X155624996Y-118639996D01*
X155624996Y-118639996D02*
X156234996Y-119249996D01*
G04 #@! TO.N,Net-(ECOG1-Pad29)*
X156650000Y-70100000D02*
X156650000Y-70469996D01*
X156650000Y-70469996D02*
X156650000Y-70470000D01*
X156650000Y-115152432D02*
X154320000Y-117482432D01*
X156650000Y-70469996D02*
X156650000Y-115152432D01*
X154320000Y-117482432D02*
X154320000Y-118605000D01*
X154320000Y-118605000D02*
X154514997Y-118799997D01*
X154514997Y-118799997D02*
X154964996Y-119249996D01*
G04 #@! TO.N,Net-(ECOG1-Pad31)*
X157050000Y-68500000D02*
X156989998Y-68560002D01*
X156989998Y-68560002D02*
X156989998Y-69590002D01*
X156989998Y-69590002D02*
X156969998Y-69610002D01*
X156969998Y-69610002D02*
X156969998Y-69800002D01*
X156959952Y-117434952D02*
X157054997Y-117529997D01*
X157054997Y-117529997D02*
X157504996Y-117979996D01*
X156959952Y-70045048D02*
X156959952Y-117434952D01*
X156989987Y-70015013D02*
X156959952Y-70045048D01*
X156989987Y-69819991D02*
X156989987Y-70015013D01*
X156969998Y-69800002D02*
X156989987Y-69819991D01*
G04 #@! TO.N,Net-(ECOG1-Pad32)*
X157080002Y-69795000D02*
X157080002Y-69992572D01*
X157080002Y-69640002D02*
X157100000Y-69660000D01*
X157100000Y-69660000D02*
X157100000Y-69775002D01*
X157100000Y-69775002D02*
X157080002Y-69795000D01*
X157050000Y-68900000D02*
X157050000Y-69170000D01*
X157080002Y-69405000D02*
X157080002Y-69630000D01*
X157105000Y-69380002D02*
X157080002Y-69405000D01*
X157105000Y-69225000D02*
X157105000Y-69380002D01*
X157050000Y-69170000D02*
X157105000Y-69225000D01*
X157080002Y-69630000D02*
X157080002Y-69640002D01*
X157121285Y-70033715D02*
X157121285Y-70033855D01*
X157121145Y-70033715D02*
X157121285Y-70033715D01*
X157080002Y-69992572D02*
X157121145Y-70033715D01*
X157121285Y-70033855D02*
X157121215Y-70033785D01*
X157130002Y-70175002D02*
X157079996Y-70225008D01*
X157079996Y-70225008D02*
X157079996Y-115095115D01*
X157954995Y-120069997D02*
X157504996Y-120519996D01*
X157079996Y-115095115D02*
X159479995Y-117495114D01*
X158960098Y-119889996D02*
X158134996Y-119889996D01*
X159479995Y-117495114D02*
X159479995Y-119370099D01*
X158134996Y-119889996D02*
X157954995Y-120069997D01*
X157130002Y-70042572D02*
X157130002Y-70175002D01*
X157121285Y-70033855D02*
X157130002Y-70042572D01*
X159479995Y-119370099D02*
X158960098Y-119889996D01*
G04 #@! TO.N,Net-(ECOG1-Pad33)*
X157050000Y-69585000D02*
X157050000Y-69335355D01*
X157000000Y-69765002D02*
X157000000Y-69635000D01*
X158774996Y-117979996D02*
X158739996Y-117979996D01*
X156989963Y-116229963D02*
X156989963Y-70065037D01*
X158739996Y-117979996D02*
X156989963Y-116229963D01*
X156989963Y-70065037D02*
X157019998Y-70035002D01*
X157050000Y-69335355D02*
X157050000Y-69300000D01*
X157019998Y-70035002D02*
X157019998Y-69785000D01*
X157000000Y-69635000D02*
X157050000Y-69585000D01*
X157019998Y-69785000D02*
X157000000Y-69765002D01*
G04 #@! TO.N,Net-(ECOG1-Pad34)*
X157050000Y-70010000D02*
X157050000Y-69735355D01*
X157049985Y-115107545D02*
X157049985Y-70210017D01*
X159449984Y-117507544D02*
X157049985Y-115107545D01*
X157050000Y-69735355D02*
X157050000Y-69700000D01*
X157099991Y-70059991D02*
X157050000Y-70010000D01*
X157049985Y-70210017D02*
X157099991Y-70160011D01*
X159449984Y-118575008D02*
X159449984Y-117507544D01*
X158774996Y-119249996D02*
X159449984Y-118575008D01*
X157099991Y-70160011D02*
X157099991Y-70059991D01*
G04 #@! TO.N,Net-(ECOG1-Pad35)*
X158114996Y-118639996D02*
X157954995Y-118799997D01*
X157019974Y-70130026D02*
X157019974Y-115129974D01*
X157954995Y-118799997D02*
X157504996Y-119249996D01*
X157050000Y-70100000D02*
X157019974Y-70130026D01*
X157019974Y-115129974D02*
X159410000Y-117520000D01*
X159410000Y-117520000D02*
X159410000Y-118219992D01*
X159410000Y-118219992D02*
X158989996Y-118639996D01*
X158989996Y-118639996D02*
X158114996Y-118639996D01*
G04 #@! TO.N,Net-(ECOG1-Pad37)*
X157389996Y-70015004D02*
X157389996Y-69820000D01*
X157365000Y-70040000D02*
X157389996Y-70015004D01*
X157369998Y-69610002D02*
X157389998Y-69590002D01*
X157365000Y-70495000D02*
X157365000Y-70040000D01*
X157450000Y-68705000D02*
X157450000Y-68500000D01*
X157389998Y-68765002D02*
X157450000Y-68705000D01*
X157139996Y-70720004D02*
X157365000Y-70495000D01*
X157389996Y-69820000D02*
X157369998Y-69800002D01*
X158062497Y-121232495D02*
X158887599Y-121232495D01*
X157389998Y-69590002D02*
X157389998Y-68765002D01*
X157504996Y-121789996D02*
X158062497Y-121232495D01*
X157369998Y-69800002D02*
X157369998Y-69610002D01*
X158887599Y-121232495D02*
X159540016Y-120580078D01*
X159540016Y-120580078D02*
X159540016Y-117460016D01*
X159540016Y-117460016D02*
X157139996Y-115059996D01*
X157139996Y-115059996D02*
X157139996Y-70720004D01*
G04 #@! TO.N,Net-(ECOG1-Pad38)*
X157480002Y-69795000D02*
X157480002Y-69992572D01*
X157480002Y-69640002D02*
X157500000Y-69660000D01*
X157500000Y-69660000D02*
X157500000Y-69775002D01*
X157500000Y-69775002D02*
X157480002Y-69795000D01*
X157450000Y-68900000D02*
X157450000Y-69170000D01*
X157480002Y-69405000D02*
X157480002Y-69630000D01*
X157505000Y-69380002D02*
X157480002Y-69405000D01*
X157505000Y-69225000D02*
X157505000Y-69380002D01*
X157450000Y-69170000D02*
X157505000Y-69225000D01*
X157480002Y-69630000D02*
X157480002Y-69640002D01*
X157521285Y-70033715D02*
X157521285Y-70033855D01*
X157521145Y-70033715D02*
X157521285Y-70033715D01*
X157480002Y-69992572D02*
X157521145Y-70033715D01*
X157530002Y-70160002D02*
X157530002Y-70042572D01*
X157530002Y-70160002D02*
X157530002Y-70175002D01*
X157530002Y-70175002D02*
X157510004Y-70195000D01*
X157510004Y-70195000D02*
X157510004Y-70469996D01*
X157510004Y-70469996D02*
X157510004Y-70470000D01*
X157530002Y-70042572D02*
X157521285Y-70033855D01*
X157521285Y-70033855D02*
X157521215Y-70033785D01*
X158144996Y-123689996D02*
X157954995Y-123879997D01*
X158970098Y-123689996D02*
X158144996Y-123689996D01*
X157510004Y-70469996D02*
X157510004Y-70559988D01*
X157510004Y-70559988D02*
X157259996Y-70809996D01*
X157259996Y-70809996D02*
X157259996Y-114979996D01*
X157259996Y-114979996D02*
X159669996Y-117389996D01*
X159669996Y-117389996D02*
X159669996Y-122990098D01*
X157954995Y-123879997D02*
X157504996Y-124329996D01*
X159669996Y-122990098D02*
X158970098Y-123689996D01*
G04 #@! TO.N,Net-(ECOG1-Pad39)*
X157419998Y-69860000D02*
X157419998Y-70035002D01*
X157450000Y-69585000D02*
X157400000Y-69635000D01*
X157400000Y-69635000D02*
X157400000Y-69765002D01*
X157400000Y-69765002D02*
X157419998Y-69785000D01*
X157419998Y-69785000D02*
X157419998Y-69860000D01*
X157450000Y-69300000D02*
X157450000Y-69585000D01*
X157419998Y-70195000D02*
X157419998Y-70469996D01*
X157419998Y-70469996D02*
X157419998Y-70470000D01*
X157400000Y-70175002D02*
X157419998Y-70195000D01*
X157400000Y-70055000D02*
X157400000Y-70175002D01*
X157419998Y-70035002D02*
X157400000Y-70055000D01*
X159570024Y-120994968D02*
X158774996Y-121789996D01*
X157419998Y-70490008D02*
X157419984Y-70490008D01*
X157419998Y-70469996D02*
X157419998Y-70490008D01*
X157419984Y-70490008D02*
X157169996Y-70739996D01*
X157169996Y-70739996D02*
X157169996Y-115039996D01*
X157169996Y-115039996D02*
X159570024Y-117440024D01*
X159570024Y-117440024D02*
X159570024Y-120994968D01*
G04 #@! TO.N,Net-(ECOG1-Pad40)*
X157450000Y-69700000D02*
X157450000Y-70010000D01*
X157480002Y-70180000D02*
X157480002Y-70469996D01*
X157480002Y-70469996D02*
X157480002Y-70470000D01*
X157500000Y-70160002D02*
X157480002Y-70180000D01*
X157500000Y-70060000D02*
X157500000Y-70160002D01*
X157450000Y-70010000D02*
X157500000Y-70060000D01*
X157480002Y-70540008D02*
X157480002Y-70469996D01*
X157229996Y-70790014D02*
X157480002Y-70540008D01*
X157229996Y-114999996D02*
X157229996Y-70790014D01*
X159639996Y-117409996D02*
X157229996Y-114999996D01*
X158774996Y-123059996D02*
X159639996Y-122194996D01*
X159639996Y-122194996D02*
X159639996Y-117409996D01*
G04 #@! TO.N,Net-(ECOG1-Pad41)*
X158164894Y-122400098D02*
X157504996Y-123059996D01*
X158989996Y-122400098D02*
X158164894Y-122400098D01*
X159609996Y-121780098D02*
X158989996Y-122400098D01*
X159609996Y-117429996D02*
X159609996Y-121720098D01*
X157199996Y-115019996D02*
X159609996Y-117429996D01*
X157199996Y-70760012D02*
X157199996Y-115019996D01*
X157450000Y-70100000D02*
X157450000Y-70510008D01*
X157450000Y-70510008D02*
X157199996Y-70760012D01*
G04 #@! TO.N,Net-(ECOG1-Pad43)*
X159739996Y-117349996D02*
X159739996Y-124634996D01*
X157319996Y-114929996D02*
X159739996Y-117349996D01*
X157319996Y-70869996D02*
X157319996Y-114929996D01*
X157765000Y-70040000D02*
X157765000Y-70424992D01*
X157789998Y-68560002D02*
X157789998Y-69590002D01*
X159739996Y-124634996D02*
X159224995Y-125149997D01*
X157789987Y-70015013D02*
X157765000Y-70040000D01*
X157850000Y-68500000D02*
X157789998Y-68560002D01*
X157765000Y-70424992D02*
X157319996Y-70869996D01*
X157789998Y-69590002D02*
X157769998Y-69610002D01*
X159224995Y-125149997D02*
X158774996Y-125599996D01*
X157769998Y-69610002D02*
X157769998Y-69800002D01*
X157769998Y-69800002D02*
X157789987Y-69819991D01*
X157789987Y-69819991D02*
X157789987Y-70015013D01*
G04 #@! TO.N,Net-(ECOG1-Pad44)*
X157921285Y-70033855D02*
X157921215Y-70033785D01*
X157880002Y-69992572D02*
X157921145Y-70033715D01*
X157921145Y-70033715D02*
X157921285Y-70033715D01*
X157921285Y-70033715D02*
X157921285Y-70033855D01*
X157880002Y-69630000D02*
X157880002Y-69640002D01*
X157850000Y-69170000D02*
X157905000Y-69225000D01*
X157905000Y-69225000D02*
X157905000Y-69380002D01*
X157905000Y-69380002D02*
X157880002Y-69405000D01*
X157880002Y-69405000D02*
X157880002Y-69630000D01*
X157850000Y-68900000D02*
X157850000Y-69170000D01*
X157900000Y-69775002D02*
X157880002Y-69795000D01*
X157900000Y-69660000D02*
X157900000Y-69775002D01*
X157880002Y-69640002D02*
X157900000Y-69660000D01*
X157880002Y-69795000D02*
X157880002Y-69992572D01*
X157930002Y-70175002D02*
X157930002Y-70042572D01*
X157910004Y-70195000D02*
X157930002Y-70175002D01*
X159860034Y-133404958D02*
X159860034Y-117250034D01*
X157930002Y-70042572D02*
X157921285Y-70033855D01*
X159860034Y-117250034D02*
X157440000Y-114830000D01*
X157440000Y-114830000D02*
X157440000Y-70940000D01*
X158774996Y-134489996D02*
X159860034Y-133404958D01*
X157440000Y-70940000D02*
X157910004Y-70469996D01*
X157910004Y-70469996D02*
X157910004Y-70195000D01*
G04 #@! TO.N,Net-(ECOG1-Pad45)*
X157850000Y-69585000D02*
X157850000Y-69335355D01*
X157800009Y-69634991D02*
X157850000Y-69585000D01*
X157819998Y-69785000D02*
X157800009Y-69765011D01*
X157819998Y-70035002D02*
X157819998Y-69785000D01*
X157850000Y-69335355D02*
X157850000Y-69300000D01*
X157800000Y-70055000D02*
X157819998Y-70035002D01*
X159770006Y-125874986D02*
X159770006Y-117320006D01*
X157800009Y-69765011D02*
X157800009Y-69634991D01*
X158774996Y-126869996D02*
X159770006Y-125874986D01*
X159770006Y-117320006D02*
X157349996Y-114899996D01*
X157349996Y-114899996D02*
X157349996Y-70895145D01*
X157349996Y-70895145D02*
X157800000Y-70445141D01*
X157800000Y-70445141D02*
X157800000Y-70055000D01*
G04 #@! TO.N,Net-(ECOG1-Pad46)*
X157954995Y-134039997D02*
X157504996Y-134489996D01*
X159830025Y-117270025D02*
X159830025Y-132164967D01*
X157409996Y-70920026D02*
X157409996Y-114849996D01*
X159830025Y-132164967D02*
X157954995Y-134039997D01*
X157850000Y-70010000D02*
X157900000Y-70060000D01*
X157850000Y-69700000D02*
X157850000Y-70010000D01*
X157409996Y-114849996D02*
X159830025Y-117270025D01*
X157900000Y-70060000D02*
X157900000Y-70160002D01*
X157900000Y-70160002D02*
X157880002Y-70180000D01*
X157880002Y-70180000D02*
X157880002Y-70450020D01*
X157880002Y-70450020D02*
X157409996Y-70920026D01*
G04 #@! TO.N,Net-(ECOG1-Pad47)*
X159224995Y-127689997D02*
X158774996Y-128139996D01*
X157850000Y-70437582D02*
X157379996Y-70907586D01*
X157850000Y-70100000D02*
X157850000Y-70437582D01*
X157379996Y-70907586D02*
X157379996Y-114869996D01*
X157379996Y-114869996D02*
X159800015Y-117290015D01*
X159800015Y-117290015D02*
X159800015Y-127114977D01*
X159800015Y-127114977D02*
X159224995Y-127689997D01*
G04 #@! TO.N,Net-(ECOG1-Pad49)*
X158189996Y-70015004D02*
X158165000Y-70040000D01*
X158165000Y-70040000D02*
X158165000Y-70189996D01*
X158165000Y-70189996D02*
X158165000Y-70190004D01*
X158169998Y-69784998D02*
X158169998Y-69800002D01*
X158189998Y-68920000D02*
X158189998Y-68765002D01*
X158189998Y-69590002D02*
X158169998Y-69610002D01*
X158169998Y-69700000D02*
X158169998Y-69784998D01*
X158169998Y-69610002D02*
X158169998Y-69700000D01*
X158189998Y-68920000D02*
X158189998Y-69290002D01*
X158250000Y-68705000D02*
X158200000Y-68755000D01*
X158250000Y-68500000D02*
X158250000Y-68705000D01*
X158189998Y-69290002D02*
X158189998Y-69590002D01*
X158189998Y-68765002D02*
X158200000Y-68755000D01*
X158169998Y-69800002D02*
X158189996Y-69820000D01*
X158189996Y-69820000D02*
X158189996Y-70015004D01*
X157500011Y-114797571D02*
X157500011Y-70965107D01*
X158774996Y-135759996D02*
X159920054Y-134614938D01*
X159920054Y-134614938D02*
X159920055Y-134212480D01*
X157500011Y-70965107D02*
X158165000Y-70300120D01*
X159920055Y-117217614D02*
X157500011Y-114797571D01*
X159920055Y-134212480D02*
X159920055Y-117217614D01*
X158165000Y-70300120D02*
X158165000Y-70189996D01*
G04 #@! TO.N,Net-(ECOG1-Pad50)*
X158321285Y-70033855D02*
X158321215Y-70033785D01*
X158280002Y-69992572D02*
X158321145Y-70033715D01*
X158321145Y-70033715D02*
X158321285Y-70033715D01*
X158321285Y-70033715D02*
X158321285Y-70033855D01*
X158280002Y-69630000D02*
X158280002Y-69640002D01*
X158250000Y-69170000D02*
X158305000Y-69225000D01*
X158305000Y-69225000D02*
X158305000Y-69380002D01*
X158305000Y-69380002D02*
X158280002Y-69405000D01*
X158280002Y-69405000D02*
X158280002Y-69630000D01*
X158250000Y-68900000D02*
X158250000Y-69170000D01*
X158300000Y-69775002D02*
X158280002Y-69795000D01*
X158300000Y-69660000D02*
X158300000Y-69775002D01*
X158280002Y-69640002D02*
X158300000Y-69660000D01*
X158280002Y-69795000D02*
X158280002Y-69992572D01*
X158774996Y-138299996D02*
X160049923Y-137025069D01*
X160049923Y-137025069D02*
X160049923Y-117177719D01*
X157620055Y-114747851D02*
X157620055Y-71015063D01*
X160049923Y-117177719D02*
X157620055Y-114747851D01*
X158330002Y-70042572D02*
X158321285Y-70033855D01*
X158330002Y-70305118D02*
X158330002Y-70042572D01*
X157620055Y-71015063D02*
X158330002Y-70305118D01*
G04 #@! TO.N,Net-(ECOG1-Pad51)*
X158114992Y-136420000D02*
X159080000Y-136420000D01*
X158200000Y-69635000D02*
X158250000Y-69585000D01*
X158250000Y-69585000D02*
X158250000Y-69335355D01*
X158219998Y-70035002D02*
X158219998Y-69785000D01*
X158250000Y-69335355D02*
X158250000Y-69300000D01*
X159080000Y-136420000D02*
X159950066Y-135549934D01*
X157504996Y-137029996D02*
X158114992Y-136420000D01*
X158200000Y-70055000D02*
X158219998Y-70035002D01*
X158200000Y-70307560D02*
X158200000Y-70055000D01*
X158200000Y-69765002D02*
X158200000Y-69635000D01*
X157530022Y-70977537D02*
X158200000Y-70307560D01*
X157530022Y-114785141D02*
X157530022Y-70977537D01*
X159950066Y-117205184D02*
X157530022Y-114785141D01*
X159950066Y-135549934D02*
X159950066Y-117205184D01*
X158219998Y-69785000D02*
X158200000Y-69765002D01*
G04 #@! TO.N,Net-(ECOG1-Pad52)*
X158970094Y-137660000D02*
X160019912Y-136610182D01*
X157504996Y-138299996D02*
X158144992Y-137660000D01*
X160019912Y-136610182D02*
X160019912Y-117190149D01*
X157590044Y-114760281D02*
X157590044Y-71002633D01*
X158299991Y-70292688D02*
X158299991Y-70059991D01*
X158144992Y-137660000D02*
X158970094Y-137660000D01*
X158299991Y-70059991D02*
X158250000Y-70010000D01*
X158250000Y-70010000D02*
X158250000Y-69735355D01*
X157590044Y-71002633D02*
X158299991Y-70292688D01*
X160019912Y-117190149D02*
X157590044Y-114760281D01*
X158250000Y-69735355D02*
X158250000Y-69700000D01*
G04 #@! TO.N,Net-(ECOG1-Pad53)*
X159224995Y-136579997D02*
X158774996Y-137029996D01*
X157560033Y-114772711D02*
X159980077Y-117192754D01*
X158250000Y-70100000D02*
X158250000Y-70300000D01*
X158250000Y-70300000D02*
X157560033Y-70989967D01*
X157560033Y-70989967D02*
X157560033Y-114772711D01*
X159980077Y-135824915D02*
X159224995Y-136579997D01*
X159980077Y-117192754D02*
X159980077Y-135824915D01*
G04 #@! TO.N,Net-(ECOG1-Pad55)*
X157680077Y-114722991D02*
X160109945Y-117152859D01*
X158565000Y-70155000D02*
X157680077Y-71039923D01*
X158589996Y-70015004D02*
X158565000Y-70040000D01*
X160109945Y-138235047D02*
X158774996Y-139569996D01*
X160109945Y-117152859D02*
X160109945Y-138235047D01*
X158589996Y-69820000D02*
X158589996Y-70015004D01*
X158650000Y-68705000D02*
X158589998Y-68765002D01*
X158650000Y-68500000D02*
X158650000Y-68705000D01*
X157680077Y-71039923D02*
X157680077Y-114722991D01*
X158589998Y-68765002D02*
X158589998Y-69590002D01*
X158589998Y-69590002D02*
X158569998Y-69610002D01*
X158569998Y-69610002D02*
X158569998Y-69800002D01*
X158565000Y-70040000D02*
X158565000Y-70155000D01*
X158569998Y-69800002D02*
X158589996Y-69820000D01*
G04 #@! TO.N,Net-(ECOG1-Pad56)*
X158680002Y-69795000D02*
X158680002Y-69992572D01*
X158680002Y-69640002D02*
X158700000Y-69660000D01*
X158700000Y-69660000D02*
X158700000Y-69775002D01*
X158700000Y-69775002D02*
X158680002Y-69795000D01*
X158650000Y-68900000D02*
X158650000Y-69170000D01*
X158680002Y-69405000D02*
X158680002Y-69630000D01*
X158705000Y-69380002D02*
X158680002Y-69405000D01*
X158705000Y-69225000D02*
X158705000Y-69380002D01*
X158650000Y-69170000D02*
X158705000Y-69225000D01*
X158680002Y-69630000D02*
X158680002Y-69640002D01*
X158721285Y-70033715D02*
X158721285Y-70033855D01*
X158721145Y-70033715D02*
X158721285Y-70033715D01*
X158680002Y-69992572D02*
X158721145Y-70033715D01*
X158721285Y-70033855D02*
X158721215Y-70033785D01*
X158729989Y-70042559D02*
X158721285Y-70033855D01*
X157810033Y-114683183D02*
X157810033Y-71079965D01*
X160229989Y-117103139D02*
X157810033Y-114683183D01*
X160229989Y-141925003D02*
X160229989Y-117103139D01*
X158774996Y-143379996D02*
X160229989Y-141925003D01*
X157810033Y-71079965D02*
X158729989Y-70160009D01*
X158729989Y-70160009D02*
X158729989Y-70042559D01*
G04 #@! TO.N,Net-(ECOG1-Pad57)*
X160139956Y-117140429D02*
X157720000Y-114720473D01*
X158960094Y-140210000D02*
X160139956Y-139030138D01*
X157504996Y-140839996D02*
X158134992Y-140210000D01*
X160139956Y-139030138D02*
X160139956Y-117140429D01*
X158600000Y-69765002D02*
X158600000Y-69635000D01*
X158619998Y-69785000D02*
X158600000Y-69765002D01*
X158650000Y-69335355D02*
X158650000Y-69300000D01*
X158619998Y-70035002D02*
X158619998Y-69785000D01*
X158600000Y-70055000D02*
X158619998Y-70035002D01*
X157720000Y-71042677D02*
X158600000Y-70162679D01*
X158600000Y-69635000D02*
X158650000Y-69585000D01*
X157720000Y-114720473D02*
X157720000Y-71042677D01*
X158600000Y-70162679D02*
X158600000Y-70055000D01*
X158650000Y-69585000D02*
X158650000Y-69335355D01*
X158134992Y-140210000D02*
X158960094Y-140210000D01*
G04 #@! TO.N,Net-(ECOG1-Pad58)*
X158699978Y-70059978D02*
X158699978Y-70147580D01*
X160199978Y-140685014D02*
X159224995Y-141659997D01*
X160199978Y-117115569D02*
X160199978Y-140685014D01*
X158699978Y-70147580D02*
X157780022Y-71067535D01*
X158650000Y-70010000D02*
X158699978Y-70059978D01*
X157780022Y-114695613D02*
X160199978Y-117115569D01*
X158650000Y-69700000D02*
X158650000Y-70010000D01*
X157780022Y-71067535D02*
X157780022Y-114695613D01*
X159224995Y-141659997D02*
X158774996Y-142109996D01*
G04 #@! TO.N,Net-(ECOG1-Pad59)*
X157750011Y-71055107D02*
X158650000Y-70155118D01*
X160169967Y-117127999D02*
X157750011Y-114708043D01*
X158650000Y-70135355D02*
X158650000Y-70100000D01*
X158650000Y-70155118D02*
X158650000Y-70135355D01*
X157750011Y-114708043D02*
X157750011Y-71055107D01*
X160169967Y-139445025D02*
X160169967Y-117127999D01*
X158774996Y-140839996D02*
X160169967Y-139445025D01*
G04 #@! TD*
M02*
