G04 #@! TF.GenerationSoftware,KiCad,Pcbnew,(5.0.0)*
G04 #@! TF.CreationDate,2018-08-13T20:55:57+03:00*
G04 #@! TF.ProjectId,64 channel,3634206368616E6E656C2E6B69636164,rev?*
G04 #@! TF.SameCoordinates,Original*
G04 #@! TF.FileFunction,Soldermask,Top*
G04 #@! TF.FilePolarity,Negative*
%FSLAX46Y46*%
G04 Gerber Fmt 4.6, Leading zero omitted, Abs format (unit mm)*
G04 Created by KiCad (PCBNEW (5.0.0)) date 08/13/18 20:55:57*
%MOMM*%
%LPD*%
G01*
G04 APERTURE LIST*
%ADD10R,1.100000X1.100000*%
%ADD11C,1.100000*%
%ADD12C,0.080000*%
%ADD13C,0.230000*%
G04 APERTURE END LIST*
D10*
G04 #@! TO.C,MOLC1*
X154964996Y-134489996D03*
D11*
X154964996Y-135759996D03*
X154964996Y-137029996D03*
X154964996Y-138299996D03*
X154964996Y-139569996D03*
X154964996Y-140839996D03*
X154964996Y-142109996D03*
X154964996Y-143379996D03*
X154964996Y-144649996D03*
X154964996Y-145919996D03*
X156234996Y-134489996D03*
X156234996Y-135759996D03*
X156234996Y-137029996D03*
X156234996Y-138299996D03*
X156234996Y-139569996D03*
X156234996Y-140839996D03*
X156234996Y-142109996D03*
X156234996Y-143379996D03*
X156234996Y-144649996D03*
X156234996Y-145919996D03*
X157504996Y-134489996D03*
X157504996Y-135759996D03*
X157504996Y-137029996D03*
X157504996Y-138299996D03*
X157504996Y-139569996D03*
X157504996Y-140839996D03*
X157504996Y-142109996D03*
X157504996Y-143379996D03*
X157504996Y-144649996D03*
X157504996Y-145919996D03*
X158774996Y-134489996D03*
X158774996Y-135759996D03*
X158774996Y-137029996D03*
X158774996Y-138299996D03*
X158774996Y-139569996D03*
X158774996Y-140839996D03*
X158774996Y-142109996D03*
X158774996Y-143379996D03*
X158774996Y-144649996D03*
X158774996Y-145919996D03*
G04 #@! TD*
D12*
G04 #@! TO.C,ECOG1*
X158650000Y-68100000D03*
X158250000Y-68100000D03*
X157850000Y-68100000D03*
X157450000Y-68100000D03*
X157050000Y-68100000D03*
X156650000Y-68100000D03*
X156250000Y-68100000D03*
X155850000Y-68100000D03*
X155450000Y-68100000D03*
X155050000Y-68100000D03*
X155050000Y-68100000D03*
X155050000Y-68500000D03*
X155050000Y-68900000D03*
X155050000Y-69300000D03*
X155050000Y-69700000D03*
X155050000Y-70100000D03*
X155450000Y-68100000D03*
X155450000Y-68500000D03*
X155450000Y-68900000D03*
X155450000Y-69300000D03*
X155450000Y-69700000D03*
X155450000Y-70100000D03*
X155850000Y-68100000D03*
X155850000Y-68500000D03*
X155850000Y-68900000D03*
X155850000Y-69300000D03*
X155850000Y-69700000D03*
X155850000Y-70100000D03*
X156250000Y-68100000D03*
X156250000Y-68500000D03*
X156250000Y-68900000D03*
X156250000Y-69300000D03*
X156250000Y-69700000D03*
X156250000Y-70100000D03*
X156650000Y-68100000D03*
X156650000Y-68500000D03*
X156650000Y-68900000D03*
X156650000Y-69300000D03*
X156650000Y-69700000D03*
X156650000Y-70100000D03*
X157050000Y-68100000D03*
X157050000Y-68500000D03*
X157050000Y-68900000D03*
X157050000Y-69300000D03*
X157050000Y-69700000D03*
X157050000Y-70100000D03*
X157450000Y-68100000D03*
X157450000Y-68500000D03*
X157450000Y-68900000D03*
X157450000Y-69300000D03*
X157450000Y-69700000D03*
X157450000Y-70100000D03*
X157850000Y-68100000D03*
X157850000Y-68500000D03*
X157850000Y-68900000D03*
X157850000Y-69300000D03*
X157850000Y-69700000D03*
X157850000Y-70100000D03*
X158250000Y-68100000D03*
X158250000Y-68500000D03*
X158250000Y-68900000D03*
X158250000Y-69300000D03*
X158250000Y-69700000D03*
X158250000Y-70100000D03*
X158650000Y-68100000D03*
X158650000Y-68500000D03*
X158650000Y-68900000D03*
X158650000Y-69300000D03*
X158650000Y-69700000D03*
X158650000Y-70100000D03*
D13*
X154850000Y-67900000D03*
X154850000Y-68300000D03*
X154850000Y-68700000D03*
X154850000Y-69100000D03*
X154850000Y-69500000D03*
X154850000Y-69900000D03*
X155250000Y-67900000D03*
X155250000Y-68300000D03*
X155250000Y-68700000D03*
X155250000Y-69100000D03*
X155250000Y-69500000D03*
X155250000Y-69900000D03*
X155650000Y-67900000D03*
X155650000Y-68300000D03*
X155650000Y-68700000D03*
X155650000Y-69100000D03*
X155650000Y-69500000D03*
X155650000Y-69900000D03*
X156050000Y-67900000D03*
X156050000Y-68300000D03*
X156050000Y-68700000D03*
X156050000Y-69100000D03*
X156050000Y-69500000D03*
X156050000Y-69900000D03*
X156450000Y-67900000D03*
X156450000Y-68300000D03*
X156450000Y-68700000D03*
X156450000Y-69100000D03*
X156450000Y-69500000D03*
X156450000Y-69900000D03*
X156850000Y-67900000D03*
X156850000Y-68300000D03*
X156850000Y-68700000D03*
X156850000Y-69100000D03*
X156850000Y-69500000D03*
X156850000Y-69900000D03*
X157250000Y-67900000D03*
X157250000Y-68300000D03*
X157250000Y-68700000D03*
X157250000Y-69100000D03*
X157250000Y-69500000D03*
X157250000Y-69900000D03*
X157650000Y-67900000D03*
X157650000Y-68300000D03*
X157650000Y-68700000D03*
X157650000Y-69100000D03*
X157650000Y-69500000D03*
X157650000Y-69900000D03*
X158050000Y-67900000D03*
X158050000Y-68300000D03*
X158050000Y-68700000D03*
X158050000Y-69100000D03*
X158050000Y-69500000D03*
X158050000Y-69900000D03*
X158450000Y-67900000D03*
X158450000Y-68300000D03*
X158450000Y-68700000D03*
X158450000Y-69100000D03*
X158450000Y-69500000D03*
X158450000Y-69900000D03*
X158850000Y-67900000D03*
X158850000Y-68300000D03*
X158850000Y-68700000D03*
X158850000Y-69100000D03*
X158850000Y-69500000D03*
X158850000Y-69900000D03*
G04 #@! TD*
D10*
G04 #@! TO.C,MOLC2*
X154964996Y-117979996D03*
D11*
X154964996Y-119249996D03*
X154964996Y-120519996D03*
X154964996Y-121789996D03*
X154964996Y-123059996D03*
X154964996Y-124329996D03*
X154964996Y-125599996D03*
X154964996Y-126869996D03*
X154964996Y-128139996D03*
X154964996Y-129409996D03*
X156234996Y-117979996D03*
X156234996Y-119249996D03*
X156234996Y-120519996D03*
X156234996Y-121789996D03*
X156234996Y-123059996D03*
X156234996Y-124329996D03*
X156234996Y-125599996D03*
X156234996Y-126869996D03*
X156234996Y-128139996D03*
X156234996Y-129409996D03*
X157504996Y-117979996D03*
X157504996Y-119249996D03*
X157504996Y-120519996D03*
X157504996Y-121789996D03*
X157504996Y-123059996D03*
X157504996Y-124329996D03*
X157504996Y-125599996D03*
X157504996Y-126869996D03*
X157504996Y-128139996D03*
X157504996Y-129409996D03*
X158774996Y-117979996D03*
X158774996Y-119249996D03*
X158774996Y-120519996D03*
X158774996Y-121789996D03*
X158774996Y-123059996D03*
X158774996Y-124329996D03*
X158774996Y-125599996D03*
X158774996Y-126869996D03*
X158774996Y-128139996D03*
X158774996Y-129409996D03*
G04 #@! TD*
M02*
