G04 #@! TF.FileFunction,Soldermask,Top*
%FSLAX46Y46*%
G04 Gerber Fmt 4.6, Leading zero omitted, Abs format (unit mm)*
G04 Created by KiCad (PCBNEW 4.0.7) date 12/26/17 18:08:01*
%MOMM*%
%LPD*%
G01*
G04 APERTURE LIST*
%ADD10C,0.020000*%
%ADD11R,1.000000X1.000000*%
%ADD12C,1.000000*%
%ADD13C,0.080000*%
%ADD14C,0.230000*%
G04 APERTURE END LIST*
D10*
D11*
X154940000Y-118110000D03*
D12*
X154940000Y-119380000D03*
X154940000Y-120650000D03*
X154940000Y-121920000D03*
X154940000Y-123190000D03*
X154940000Y-124460000D03*
X154940000Y-125730000D03*
X154940000Y-127000000D03*
X154940000Y-128270000D03*
X154940000Y-129540000D03*
X156210000Y-118110000D03*
X156210000Y-119380000D03*
X156210000Y-120650000D03*
X156210000Y-121920000D03*
X156210000Y-123190000D03*
X156210000Y-124460000D03*
X156210000Y-125730000D03*
X156210000Y-127000000D03*
X156210000Y-128270000D03*
X156210000Y-129540000D03*
X157480000Y-118110000D03*
X157480000Y-119380000D03*
X157480000Y-120650000D03*
X157480000Y-121920000D03*
X157480000Y-123190000D03*
X157480000Y-124460000D03*
X157480000Y-125730000D03*
X157480000Y-127000000D03*
X157480000Y-128270000D03*
X157480000Y-129540000D03*
X158750000Y-118110000D03*
X158750000Y-119380000D03*
X158750000Y-120650000D03*
X158750000Y-121920000D03*
X158750000Y-123190000D03*
X158750000Y-124460000D03*
X158750000Y-125730000D03*
X158750000Y-127000000D03*
X158750000Y-128270000D03*
X158750000Y-129540000D03*
D11*
X154940000Y-101600000D03*
D12*
X154940000Y-102870000D03*
X154940000Y-104140000D03*
X154940000Y-105410000D03*
X154940000Y-106680000D03*
X154940000Y-107950000D03*
X154940000Y-109220000D03*
X154940000Y-110490000D03*
X154940000Y-111760000D03*
X154940000Y-113030000D03*
X156210000Y-101600000D03*
X156210000Y-102870000D03*
X156210000Y-104140000D03*
X156210000Y-105410000D03*
X156210000Y-106680000D03*
X156210000Y-107950000D03*
X156210000Y-109220000D03*
X156210000Y-110490000D03*
X156210000Y-111760000D03*
X156210000Y-113030000D03*
X157480000Y-101600000D03*
X157480000Y-102870000D03*
X157480000Y-104140000D03*
X157480000Y-105410000D03*
X157480000Y-106680000D03*
X157480000Y-107950000D03*
X157480000Y-109220000D03*
X157480000Y-110490000D03*
X157480000Y-111760000D03*
X157480000Y-113030000D03*
X158750000Y-101600000D03*
X158750000Y-102870000D03*
X158750000Y-104140000D03*
X158750000Y-105410000D03*
X158750000Y-106680000D03*
X158750000Y-107950000D03*
X158750000Y-109220000D03*
X158750000Y-110490000D03*
X158750000Y-111760000D03*
X158750000Y-113030000D03*
D13*
X158650000Y-68100000D03*
X158250000Y-68100000D03*
X157850000Y-68100000D03*
X157450000Y-68100000D03*
X157050000Y-68100000D03*
X156650000Y-68100000D03*
X156250000Y-68100000D03*
X155850000Y-68100000D03*
X155450000Y-68100000D03*
X155050000Y-68100000D03*
X155050000Y-68100000D03*
X155050000Y-68500000D03*
X155050000Y-68900000D03*
X155050000Y-69300000D03*
X155050000Y-69700000D03*
X155050000Y-70100000D03*
X155450000Y-68100000D03*
X155450000Y-68500000D03*
X155450000Y-68900000D03*
X155450000Y-69300000D03*
X155450000Y-69700000D03*
X155450000Y-70100000D03*
X155850000Y-68100000D03*
X155850000Y-68500000D03*
X155850000Y-68900000D03*
X155850000Y-69300000D03*
X155850000Y-69700000D03*
X155850000Y-70100000D03*
X156250000Y-68100000D03*
X156250000Y-68500000D03*
X156250000Y-68900000D03*
X156250000Y-69300000D03*
X156250000Y-69700000D03*
X156250000Y-70100000D03*
X156650000Y-68100000D03*
X156650000Y-68500000D03*
X156650000Y-68900000D03*
X156650000Y-69300000D03*
X156650000Y-69700000D03*
X156650000Y-70100000D03*
X157050000Y-68100000D03*
X157050000Y-68500000D03*
X157050000Y-68900000D03*
X157050000Y-69300000D03*
X157050000Y-69700000D03*
X157050000Y-70100000D03*
X157450000Y-68100000D03*
X157450000Y-68500000D03*
X157450000Y-68900000D03*
X157450000Y-69300000D03*
X157450000Y-69700000D03*
X157450000Y-70100000D03*
X157850000Y-68100000D03*
X157850000Y-68500000D03*
X157850000Y-68900000D03*
X157850000Y-69300000D03*
X157850000Y-69700000D03*
X157850000Y-70100000D03*
X158250000Y-68100000D03*
X158250000Y-68500000D03*
X158250000Y-68900000D03*
X158250000Y-69300000D03*
X158250000Y-69700000D03*
X158250000Y-70100000D03*
X158650000Y-68100000D03*
X158650000Y-68500000D03*
X158650000Y-68900000D03*
X158650000Y-69300000D03*
X158650000Y-69700000D03*
X158650000Y-70100000D03*
D14*
X154850000Y-67900000D03*
X154850000Y-68300000D03*
X154850000Y-68700000D03*
X154850000Y-69100000D03*
X154850000Y-69500000D03*
X154850000Y-69900000D03*
X155250000Y-67900000D03*
X155250000Y-68300000D03*
X155250000Y-68700000D03*
X155250000Y-69100000D03*
X155250000Y-69500000D03*
X155250000Y-69900000D03*
X155650000Y-67900000D03*
X155650000Y-68300000D03*
X155650000Y-68700000D03*
X155650000Y-69100000D03*
X155650000Y-69500000D03*
X155650000Y-69900000D03*
X156050000Y-67900000D03*
X156050000Y-68300000D03*
X156050000Y-68700000D03*
X156050000Y-69100000D03*
X156050000Y-69500000D03*
X156050000Y-69900000D03*
X156450000Y-67900000D03*
X156450000Y-68300000D03*
X156450000Y-68700000D03*
X156450000Y-69100000D03*
X156450000Y-69500000D03*
X156450000Y-69900000D03*
X156850000Y-67900000D03*
X156850000Y-68300000D03*
X156850000Y-68700000D03*
X156850000Y-69100000D03*
X156850000Y-69500000D03*
X156850000Y-69900000D03*
X157250000Y-67900000D03*
X157250000Y-68300000D03*
X157250000Y-68700000D03*
X157250000Y-69100000D03*
X157250000Y-69500000D03*
X157250000Y-69900000D03*
X157650000Y-67900000D03*
X157650000Y-68300000D03*
X157650000Y-68700000D03*
X157650000Y-69100000D03*
X157650000Y-69500000D03*
X157650000Y-69900000D03*
X158050000Y-67900000D03*
X158050000Y-68300000D03*
X158050000Y-68700000D03*
X158050000Y-69100000D03*
X158050000Y-69500000D03*
X158050000Y-69900000D03*
X158450000Y-67900000D03*
X158450000Y-68300000D03*
X158450000Y-68700000D03*
X158450000Y-69100000D03*
X158450000Y-69500000D03*
X158450000Y-69900000D03*
X158850000Y-67900000D03*
X158850000Y-68300000D03*
X158850000Y-68700000D03*
X158850000Y-69100000D03*
X158850000Y-69500000D03*
X158850000Y-69900000D03*
M02*
