EESchema Schematic File Version 2
LIBS:power
LIBS:device
LIBS:switches
LIBS:relays
LIBS:motors
LIBS:transistors
LIBS:conn
LIBS:linear
LIBS:regul
LIBS:74xx
LIBS:cmos4000
LIBS:adc-dac
LIBS:memory
LIBS:xilinx
LIBS:microcontrollers
LIBS:dsp
LIBS:microchip
LIBS:analog_switches
LIBS:motorola
LIBS:texas
LIBS:intel
LIBS:audio
LIBS:interface
LIBS:digital-audio
LIBS:philips
LIBS:display
LIBS:cypress
LIBS:siliconi
LIBS:opto
LIBS:atmel
LIBS:contrib
LIBS:valves
LIBS:samtec_molc_110_01_s_q
LIBS:a16pinout
LIBS:electrode
LIBS:ground_enclosure
LIBS:64 channel-cache
EELAYER 25 0
EELAYER END
$Descr A4 11693 8268
encoding utf-8
Sheet 1 1
Title ""
Date ""
Rev ""
Comp ""
Comment1 ""
Comment2 ""
Comment3 ""
Comment4 ""
$EndDescr
$Comp
L ECOG_ACx_3600_2000_60ch ECOG1
U 1 1 5A422315
P 5450 2300
F 0 "ECOG1" H 5450 2500 60  0000 C CNN
F 1 "ECOG_ACx_3600_2000_60ch" H 5500 2650 60  0000 C CNN
F 2 "measurement_electrodes:ECOG_ACx_3600_2000_60" H 5450 2300 60  0001 C CNN
F 3 "" H 5450 2300 60  0001 C CNN
	1    5450 2300
	1    0    0    -1  
$EndComp
$Comp
L SAMTEC_MOLC_110_01_S_Q MOLC2
U 1 1 5A422626
P 2150 1750
F 0 "MOLC2" H 2300 1950 60  0000 C CNN
F 1 "SAMTEC_MOLC_110_01_S_Q" H 2350 2100 60  0000 C CNN
F 2 "SAMTEC:SAMTEC_MOLC_110_01_s_q" H 2200 2500 60  0001 C CNN
F 3 "" H 2200 2500 60  0001 C CNN
	1    2150 1750
	-1   0    0    -1  
$EndComp
$Comp
L SAMTEC_MOLC_110_01_S_Q MOLC1
U 1 1 5A422791
P 8800 1750
F 0 "MOLC1" H 8900 1950 60  0000 C CNN
F 1 "SAMTEC_MOLC_110_01_S_Q" H 8850 2100 60  0000 C CNN
F 2 "SAMTEC:SAMTEC_MOLC_110_01_s_q" H 8850 2500 60  0001 C CNN
F 3 "" H 8850 2500 60  0001 C CNN
	1    8800 1750
	1    0    0    -1  
$EndComp
Wire Wire Line
	2150 1750 4000 1750
Wire Wire Line
	4000 1750 4000 4700
Wire Wire Line
	4000 4700 5000 4700
Wire Wire Line
	2150 1850 3950 1850
Wire Wire Line
	3950 1850 3950 4900
Wire Wire Line
	3950 4900 5000 4900
Wire Wire Line
	2150 1950 3900 1950
Wire Wire Line
	3900 1950 3900 5100
Wire Wire Line
	3900 5100 5000 5100
Wire Wire Line
	2150 2050 3850 2050
Wire Wire Line
	3850 2050 3850 5200
Wire Wire Line
	3850 5200 5000 5200
Wire Wire Line
	2150 2150 4050 2150
Wire Wire Line
	4050 2150 4050 4800
Wire Wire Line
	4050 4800 5000 4800
Wire Wire Line
	2150 2250 4100 2250
Wire Wire Line
	4100 2250 4100 4300
Wire Wire Line
	4100 4300 5000 4300
Wire Wire Line
	2150 2350 4150 2350
Wire Wire Line
	4150 2350 4150 4600
Wire Wire Line
	4150 4600 5000 4600
Wire Wire Line
	2150 2450 4200 2450
Wire Wire Line
	4200 2450 4200 4200
Wire Wire Line
	4200 4200 5000 4200
Wire Wire Line
	2150 2550 4250 2550
Wire Wire Line
	4250 2550 4250 3700
Wire Wire Line
	4250 3700 5000 3700
Wire Wire Line
	2150 2650 4300 2650
Wire Wire Line
	4300 2650 4300 4000
Wire Wire Line
	4300 4000 5000 4000
Wire Wire Line
	2150 3150 3800 3150
Wire Wire Line
	3800 3150 3800 5000
Wire Wire Line
	3800 5000 5000 5000
Wire Wire Line
	2150 3250 3750 3250
Wire Wire Line
	3750 3250 3750 4100
Wire Wire Line
	3750 4100 5000 4100
Wire Wire Line
	2150 3350 3700 3350
Wire Wire Line
	3700 3350 3700 4500
Wire Wire Line
	3700 4500 5000 4500
Wire Wire Line
	2150 3450 3650 3450
Wire Wire Line
	3650 3450 3650 4400
Wire Wire Line
	3650 4400 5000 4400
Wire Wire Line
	2150 3550 5000 3550
Wire Wire Line
	5000 3550 5000 3500
Wire Wire Line
	2150 3650 4350 3650
Wire Wire Line
	4350 3650 4350 3900
Wire Wire Line
	4350 3900 5000 3900
Wire Wire Line
	2150 4150 3000 4150
Wire Wire Line
	3000 4150 3000 1450
Wire Wire Line
	3000 1450 6250 1450
Wire Wire Line
	6250 1450 6250 2500
Wire Wire Line
	6250 2500 5900 2500
Wire Wire Line
	2150 4250 3050 4250
Wire Wire Line
	3050 4250 3050 1500
Wire Wire Line
	3050 1500 6300 1500
Wire Wire Line
	6300 1500 6300 3000
Wire Wire Line
	6300 3000 5900 3000
Wire Wire Line
	2150 4350 3100 4350
Wire Wire Line
	3100 4350 3100 1550
Wire Wire Line
	3100 1550 6350 1550
Wire Wire Line
	6350 1550 6350 3400
Wire Wire Line
	6350 3400 5900 3400
Wire Wire Line
	2150 4450 3150 4450
Wire Wire Line
	3150 4450 3150 1600
Wire Wire Line
	3150 1600 6400 1600
Wire Wire Line
	6400 1600 6400 3100
Wire Wire Line
	6400 3100 5900 3100
Wire Wire Line
	2150 4550 3200 4550
Wire Wire Line
	3200 4550 3200 1650
Wire Wire Line
	3200 1650 6450 1650
Wire Wire Line
	6450 1650 6450 3600
Wire Wire Line
	6450 3600 5900 3600
Wire Wire Line
	2150 4650 3250 4650
Wire Wire Line
	3250 4650 3250 1700
Wire Wire Line
	3250 1700 6500 1700
Wire Wire Line
	6500 1700 6500 4000
Wire Wire Line
	6500 4000 5900 4000
Wire Wire Line
	2150 4750 3300 4750
Wire Wire Line
	3300 4750 3300 1400
Wire Wire Line
	3300 1400 6200 1400
Wire Wire Line
	6200 1400 6200 2400
Wire Wire Line
	6200 2400 5900 2400
Wire Wire Line
	2150 4850 3350 4850
Wire Wire Line
	3350 4850 3350 1350
Wire Wire Line
	3350 1350 6150 1350
Wire Wire Line
	6150 1350 6150 2600
Wire Wire Line
	6150 2600 5900 2600
Wire Wire Line
	2150 4950 3400 4950
Wire Wire Line
	3400 4950 3400 1300
Wire Wire Line
	3400 1300 6600 1300
Wire Wire Line
	6600 1300 6600 2800
Wire Wire Line
	6600 2800 5900 2800
Wire Wire Line
	2150 5050 3450 5050
Wire Wire Line
	3450 5050 3450 1250
Wire Wire Line
	3450 1250 6650 1250
Wire Wire Line
	6650 1250 6650 2700
Wire Wire Line
	6650 2700 5900 2700
Wire Wire Line
	2150 5150 3500 5150
Wire Wire Line
	3500 5150 3500 1200
Wire Wire Line
	3500 1200 5900 1200
Wire Wire Line
	5900 1200 5900 2300
Wire Wire Line
	2150 5250 3550 5250
Wire Wire Line
	3550 5250 3550 1150
Wire Wire Line
	3550 1150 6700 1150
Wire Wire Line
	6700 1150 6700 3200
Wire Wire Line
	6700 3200 5900 3200
Wire Wire Line
	2150 5350 3600 5350
Wire Wire Line
	3600 5350 3600 1100
Wire Wire Line
	3600 1100 6750 1100
Wire Wire Line
	6750 1100 6750 3300
Wire Wire Line
	6750 3300 5900 3300
Wire Wire Line
	2150 5450 3650 5450
Wire Wire Line
	3650 5450 3650 1050
Wire Wire Line
	3650 1050 6800 1050
Wire Wire Line
	6800 1050 6800 2900
Wire Wire Line
	6800 2900 5900 2900
Wire Wire Line
	2150 5550 3050 5550
Wire Wire Line
	3050 5550 3050 6500
Wire Wire Line
	3050 6500 6100 6500
Wire Wire Line
	6100 6500 6100 3800
Wire Wire Line
	6100 3800 5900 3800
Wire Wire Line
	2150 5650 3000 5650
Wire Wire Line
	3000 5650 3000 6550
Wire Wire Line
	3000 6550 6150 6550
Wire Wire Line
	6150 6550 6150 3900
Wire Wire Line
	6150 3900 5900 3900
Wire Wire Line
	8800 1850 4450 1850
Wire Wire Line
	4450 1850 4450 3600
Wire Wire Line
	4450 3600 5000 3600
Wire Wire Line
	8800 1950 4500 1950
Wire Wire Line
	4500 1950 4500 2900
Wire Wire Line
	4500 2900 5000 2900
Wire Wire Line
	8800 2050 4550 2050
Wire Wire Line
	4550 2050 4550 3100
Wire Wire Line
	4550 3100 5000 3100
Wire Wire Line
	8800 2150 4600 2150
Wire Wire Line
	4600 2150 4600 3400
Wire Wire Line
	4600 3400 5000 3400
Wire Wire Line
	8800 2250 4650 2250
Wire Wire Line
	4650 2250 4650 3000
Wire Wire Line
	4650 3000 5000 3000
Wire Wire Line
	8800 2350 4700 2350
Wire Wire Line
	4700 2350 4700 2500
Wire Wire Line
	4700 2500 5000 2500
Wire Wire Line
	8800 2450 4750 2450
Wire Wire Line
	4750 2450 4750 2800
Wire Wire Line
	4750 2800 5000 2800
Wire Wire Line
	8800 2550 4800 2550
Wire Wire Line
	4800 2550 4800 2400
Wire Wire Line
	4800 2400 5000 2400
Wire Wire Line
	8800 3150 4650 3150
Wire Wire Line
	4650 3150 4650 3300
Wire Wire Line
	4650 3300 5000 3300
Wire Wire Line
	8800 3250 5000 3250
Wire Wire Line
	5000 3250 5000 3200
Wire Wire Line
	8800 3350 4950 3350
Wire Wire Line
	4950 3350 4950 2300
Wire Wire Line
	4950 2300 5000 2300
Wire Wire Line
	8800 3450 4900 3450
Wire Wire Line
	4900 3450 4900 2700
Wire Wire Line
	4900 2700 5000 2700
Wire Wire Line
	8800 3550 6850 3550
Wire Wire Line
	6850 3550 6850 2650
Wire Wire Line
	6850 2650 5000 2650
Wire Wire Line
	5000 2650 5000 2600
Wire Wire Line
	8800 4150 7600 4150
Wire Wire Line
	7600 4150 7600 4600
Wire Wire Line
	7600 4600 5900 4600
Wire Wire Line
	5900 4250 8800 4250
Wire Wire Line
	5900 4250 5900 4300
Wire Wire Line
	8800 4350 7550 4350
Wire Wire Line
	7550 4350 7550 4800
Wire Wire Line
	7550 4800 5900 4800
Wire Wire Line
	8800 4450 7650 4450
Wire Wire Line
	7650 4450 7650 5200
Wire Wire Line
	7650 5200 5900 5200
Wire Wire Line
	8800 4550 7700 4550
Wire Wire Line
	7700 4550 7700 4900
Wire Wire Line
	7700 4900 5900 4900
Wire Wire Line
	8800 4750 7750 4750
Wire Wire Line
	7750 4750 7750 3700
Wire Wire Line
	7750 3700 5900 3700
Wire Wire Line
	8800 4850 7800 4850
Wire Wire Line
	7800 4850 7800 3500
Wire Wire Line
	7800 3500 5900 3500
Wire Wire Line
	8800 4950 7500 4950
Wire Wire Line
	7500 4950 7500 4200
Wire Wire Line
	7500 4200 5900 4200
Wire Wire Line
	8800 5050 7450 5050
Wire Wire Line
	7450 5050 7450 4400
Wire Wire Line
	7450 4400 5900 4400
Wire Wire Line
	8800 5150 7400 5150
Wire Wire Line
	7400 5150 7400 4500
Wire Wire Line
	7400 4500 5900 4500
Wire Wire Line
	8800 5250 7350 5250
Wire Wire Line
	7350 5250 7350 4100
Wire Wire Line
	7350 4100 5900 4100
Wire Wire Line
	8800 5350 7300 5350
Wire Wire Line
	7300 5350 7300 5000
Wire Wire Line
	7300 5000 5900 5000
Wire Wire Line
	8800 5450 7250 5450
Wire Wire Line
	7250 5450 7250 5100
Wire Wire Line
	7250 5100 5900 5100
Wire Wire Line
	7200 5550 8800 5550
Wire Wire Line
	7200 5550 7200 4700
Wire Wire Line
	7200 4700 5900 4700
Wire Wire Line
	5000 3800 4400 3800
Wire Wire Line
	4400 3800 4400 1750
Wire Wire Line
	4400 1750 8800 1750
$EndSCHEMATC
